pdbid,num_chains,class,MMscore,pTM,ipTM,Symmetry,min_miDockQ,min_pmiDockQ
5wb4,2,homomer,0.58517,0.885,0.807,C2,0.036000000000000004,0.8761006290692035
5ze7,2,homomer,0.48875,0.937,0.925,C1,0.006,0.9608626129906896
6a7s,2,homomer,0.68376,0.852,0.8370000000000001,C2,0.08800000000000001,0.7604925016215109
6c30,2,homomer,0.47983000000000003,0.907,0.8959999999999999,C2,0.006,0.9156106994087384
6ea8,2,homomer,0.49686,0.8590000000000001,0.847,C2,0.0069999999999999,0.9527051900871096
6eg7,2,homomer,0.4939,0.899,0.905,C2,0.013000000000000001,0.945068318129376
6ghs,2,homomer,0.5655,0.8809999999999999,0.877,C2,0.16,0.5843659277890956
6i1r,2,homomer,0.48488000000000003,0.853,0.835,C2,0.005,0.6232278464198076
6jbd,2,homomer,0.49433999999999995,0.956,0.947,C2,0.009000000000000001,0.9696204387972108
6k62,2,homomer,0.49399,0.921,0.907,C2,0.006,0.9343239187978498
6kew,2,homomer,0.49054,0.8959999999999999,0.8759999999999999,C1,0.002,0.9565307506070452
6mx1,2,homomer,0.72375,0.892,0.885,C2,0.038,0.7957944120846173
6np6,2,homomer,0.45693999999999996,0.935,0.926,C2,0.01,0.9112746365567688
6p74,2,homomer,0.48485,0.851,0.8370000000000001,C2,0.006,0.4843137405800741
6pal,2,homomer,0.55047,0.93,0.903,C2,0.025,0.9192253971466678
6t4d,2,homomer,0.50662,0.861,0.856,C2,0.006,0.9651934522533241
6tgp,2,homomer,0.50793,0.86,0.84,C1,0.03,0.9629516295607043
6uxu,2,homomer,0.49782,0.936,0.915,C2,0.006,0.956199132231018
6vd8,2,homomer,0.49876000000000004,0.8759999999999999,0.862,C2,0.024,0.970985569905279
6wku,2,homomer,0.8256,0.935,0.92,C2,0.02,0.8107270026974989
7c67,2,homomer,0.59975,0.917,0.889,C2,0.017,0.8763285372525905
7cf7,2,homomer,0.42783999999999994,0.915,0.897,C2,0.025,0.9674504970806528
7e8j,2,homomer,0.47753999999999996,0.879,0.889,C2,0.139,0.9121774243038812
7ebs,2,homomer,0.47501000000000004,0.929,0.915,C2,0.008,0.9352455840695432
7jl6,2,homomer,0.58487,0.865,0.84,C2,0.1,0.6857195134093971
7n34,2,homomer,0.4802300000000001,0.865,0.843,C2,0.013999999999999999,0.8628032228975984
7o4e,2,homomer,0.44896,0.865,0.789,C2,0.025,0.7641076597368184
7vfo,2,homomer,0.4963,0.8909999999999999,0.863,C2,0.003,0.9150365632950782
5z5o,2,heteromer,0.77222,0.868,0.858,C1,0.0069999999999999,0.9727423746279706
6lki,2,heteromer,0.61397,0.898,0.878,C1,0.02,0.9497932742131562
6nep,2,heteromer,0.6429699999999999,0.894,0.8690000000000001,C1,0.013999999999999999,0.9417901292434554
6w98,2,heteromer,0.94175,0.88,0.228,C1,0.06,0.0
6xf1,2,heteromer,0.68447,0.873,0.823,C1,0.187,0.7977851844383551
7b2i,2,heteromer,0.50741,0.919,0.939,C1,0.006,0.9401832339711425
7ci2,2,heteromer,0.915,0.867,0.393,C1,0.07,0.2806231023478853
7ryp,2,heteromer,0.7974399999999999,0.856,0.809,C1,0.153,0.2263003693939365
5w5p,3,homomer,0.75346,0.855,0.852,C3,0.152,0.5786423080035419
6k6i,3,homomer,0.33233,0.926,0.915,C3,0.01,0.950776002124432
6j9l,3,heteromer,0.89884,0.875,0.848,C1,0.064,0.7104800253750199
7ewj,3,heteromer,0.8759600000000001,0.92,0.9,C1,0.213,0.8929162881487498
7nwz,3,heteromer,0.91922,0.862,0.846,C1,0.05,0.5132748964068015
7us1,3,heteromer,0.79009,0.861,0.777,C1,0.008,0.5767693595302145
6g57,4,homomer,0.36409,0.861,0.85,C2,0.031,0.7298078860201272
6kjt,4,homomer,0.49572,0.883,0.866,C1,0.009000000000000001,0.8529846199635172
6lhx,4,homomer,0.47631,0.87,0.853,C2,0.098,0.7637256340738593
6sjd,4,homomer,0.48921000000000003,0.8740000000000001,0.848,C2,0.21899999999999997,0.8743043928377183
6tlb,4,homomer,0.50934,0.857,0.838,D2,0.151,0.8523436650818357
6yuq,4,homomer,0.44342,0.885,0.862,C2,0.109,0.8112613546403245
7ddy,4,homomer,0.7428,0.897,0.8909999999999999,C1,0.009000000000000001,0.976630410502824
7mnk,4,homomer,0.5119199999999999,0.872,0.8590000000000001,D2,0.045,0.9113157723210604
7tt9,4,homomer,0.50369,0.8690000000000001,0.8370000000000001,D2,0.168,0.7759239634765387
6los,4,heteromer,0.85182,0.903,0.775,C1,0.0069999999999999,0.740094719664837
6pxe,4,heteromer,0.53094,0.8590000000000001,0.83,C2,0.004,0.9094376498517026
6s9k,4,heteromer,0.9162,0.858,0.795,C2,0.1669999999999999,0.22408569661602912
6wrw,4,heteromer,0.87171,0.8640000000000001,0.795,C2,0.004,0.0
7ak8,4,heteromer,0.45725,0.931,0.923,C2,0.016,0.8254280408227328
7mid,4,heteromer,0.82565,0.865,0.85,C1,0.005,0.5656718576315083
6m8r,6,heteromer,0.7663,0.851,0.825,C1,0.052000000000000005,0.2056790136672174
