A0A1J0MGR2,-0.6317295887938764
G3M192,0.9280952396654932
G3M192,0.9641605536183111
G3M192,0.9551442251301063
D3T4E0,-0.9953881711514558
D3T4E0,-1.0164262709572662
D3T4E0,-1.0013990568102589
Q9WZF6,1.445031406322548
A0A3F2YLT8,-0.03965735140178433
A0A3F2YLT8,-0.19594037853066157
A0A3F2YLT8,0.552414885990308
Q8U3Q7,1.5832817764750164
Q9Y2G1,-1.1787201837449461
Q9Y2G1,-1.1787201837449461
P54198,0.910062582689084
P54198,1.015253081718136
P54198,0.9551442251301063
P0DOV2,-1.1817256265743477
P0DOV2,-1.1877365122331507
P0DOV2,-1.175714740915545
Q39583,1.324813693146489
Q39583,1.3157973646582841
Q39583,1.318802807487686
A0A0A8RA06,1.4630640632989569
B3GVK1,0.24886516022075808
J9VGI2,1.5652491194986073
A0A1L4BK98,0.44722438696125594
A0A1L4BK98,0.4532352726200586
A0A1L4BK98,0.44722438696125594
A0A0H3JNB0,1.2376558510938458
A0A0H3JNB0,1.0753619383061654
A0A0H3JNB0,1.2436667367526488
Q8JPR1,1.2376558510938458
B1L576,0.4231808443260441
B1L576,0.44722438696125594
B1L576,0.4021427445202337
Q76HJ9,-1.1907419550625522
Q76HJ9,-1.1907419550625522
Q76HJ9,-1.1907419550625522
Q859I6,1.0032313104005302
D0IVL9,-1.1546766411097344
D0IVL9,-1.1546766411097344
D0IVL9,-1.1697038552567418
D0IVL9,-1.1697038552567418
Q5ZK43,1.1414816805529984
A0A3B6UEU4,1.6013144334514249
A0A3B6UEU4,1.6043198762808268
A0A3B6UEU4,1.6133362047690312
P32266,-1.1877365122331507
P32266,-1.1937473978919537
P32266,-1.1877365122331507
Q9HAS3,1.207601422799831
Q9HAS3,1.2015905371410278
Q9HAS3,1.213612308458634
Q65179,0.8168938549776383
Q65179,0.8319210691246457
Q65179,0.8649809402480617
Q2G0L5,-0.8601432438283891
Q2G0L5,-0.6768112312348986
Q2G0L5,-1.1847310694037492
A0A0H3AKH0,-0.0787281081840033
Q8SCZ8,1.3218082503170872
G2EBB4,0.22482161758554603
G2EBB4,0.21881073192674325
G2EBB4,0.161707318168115
D7Y2H5,1.0392966243533481
B3VMP4,0.2939468026617802
B3VMP4,0.16771820382691782
B3VMP4,0.21881073192674325
Q8W5Z4,1.351862678611102
Q8W5Z4,1.3368354644640945
Q8W5Z4,1.3698953355875112
B2J0I0,0.5133441292080883
B2J0I0,0.5073332435492857
B2J0I0,0.5283713433550957
Q9SB92,-1.1095949986687121
Q9SB92,-0.9983936139808572
Q9SB92,-1.1186113271569165
A0A3W2RZ19,0.46225160110826335
A0A3W2RZ19,-0.1298206362838289
A0A3W2RZ19,-0.10878253647801832
A0A264DUQ2,1.607325319110228
A0A264DUQ2,1.6133362047690312
A0A264DUQ2,1.5922981049632206
D1L2X1,1.213612308458634
Q48484,1.2376558510938458
Q64663,0.6155291854077388
Q64663,0.6245455138959433
Q64663,0.6395727280429506
P04578,-1.0134208281278647
P04578,-1.0254425994454706
P04578,-1.0254425994454706
A0A060TAG5,1.4089660923697302
Q6J8X0,-1.1847310694037492
Q6J8X0,-1.1907419550625522
Q6J8X0,-1.1907419550625522
Q7Z3C6,0.7177142416073893
Q7Z3C6,0.7237251272661922
Q7Z3C6,0.7237251272661922
P06437,-1.1005786701805076
P06437,-1.103584113009909
P06437,-1.1065895558393106
H2AM12,-0.8000343872403595
Q9HYQ0,-1.1666984124273403
Q9HYQ0,-1.1727092980861433
Q9HYQ0,-1.1396494269627269
P73953,1.0182585245475375
P73953,1.0182585245475375
P73953,1.0272748530357418
Q3UR85,1.5892926621338193
Q3UR85,1.5892926621338193
Q3UR85,1.5892926621338193
A0A2U9GDM4,-0.9863718426632513
B2UR43,0.02045150518624538
B2UR43,0.03547871933325264
B2UR43,0.023456948015646864
A0A8F7LEJ5,-0.9352793145634263
A0A8F7LEJ5,-0.9442956430516305
A0A8F7LEJ5,-0.9322738717340247
Q8ZS03,-0.6557731314290883
Q8ZS03,-0.7369200878229283
Q8ZS03,-0.6257187031350735
Q9FKZ1,-1.14566031262153
Q74BG5,-1.1727092980861433
Q74BG5,-1.1907419550625522
Q74BG5,-1.1847310694037492
Q75760,-1.1817256265743477
Q75760,-1.1817256265743477
Q75760,-1.1877365122331507
Q75760,-1.1877365122331507
Q75760,-1.1847310694037492
Q75760,-1.1847310694037492
A0A0H3HIJ5,1.5862872193044175
P73270,-1.1727092980861433
P73270,-0.8631486866577907
P73270,-0.9172466575870172
P10636,-1.1817256265743477
P10636,-1.1847310694037492
P10636,-1.175714740915545
Q9NUM4,-1.14566031262153
Q9NUM4,-1.151671198280333
Q9NUM4,-1.14566031262153
G3M192,-0.39429960527115926
G3M192,-0.4904737758120068
E2NBY7,1.3969443210521242
E2NBY7,1.3668898927581095
E2NBY7,1.345851792952299
Q9H813,-0.5986697176704602
Q9H813,-0.5956642748410585
Q9H813,-0.5986697176704602
P10636,-1.1306330984745225
P10636,-1.133638541303924
P10636,-1.133638541303924
P35637,-1.1907419550625522
P35637,-1.1907419550625522
P35637,-1.1877365122331507
A0A0T5PCK9,-1.1366439841333253
A0A0T5PCK9,-1.14566031262153
A0A0T5PCK9,-1.0554970277394855
A0A068Q5Q5,-0.4844628901532038
A0A068Q5Q5,-0.5175227612766201
A0A068Q5Q5,-0.4694356760061964
Q9LD83,0.771812212536616
Q9LD83,0.7688067697072145
Q9LD83,0.7477686699014041
Q9RRB6,-1.1396494269627269
Q9RRB6,-1.1396494269627269
Q9RRB6,-1.151671198280333
P69333,-0.8601432438283891
P78423,-0.24102202097168368
C0LGW6,1.0903891524531728
C0LGW6,0.6425781708723521
Q9SSD1,0.9461278966419018
Q9WUB0,0.42017540149664223
Q924T7,0.39913730169083217
Q91WA6,0.6876598133133744
F8TEL4,-0.012608365937171125
F8TEL4,0.8349265119540469
Q8R464,-0.7579581876287387
Q8R464,-1.1847310694037492
Q99N28,-1.0404698135924781
G2QC65,0.6936706989721774
G2Q3X1,1.2045959799704296
P24941,1.4510422919813506
P20248,1.5051402629105777
P46527,1.439020520663745
Q6D8U3,-0.7188874308465194
P16972,-0.5595989608882409
P16972,-1.0074099424690617
Q53GS7,0.4502298297906571
Q53GS7,0.4532352726200586
O15504,0.3540556592498099
Q5TKA1,1.2226286369468384
Q52LA3,1.3789116640757153
P10244,1.1565088947000055
Q15542,0.6035074140901329
Q15542,-0.14184240760143466
Q15542,0.3149849024675906
P31946,1.363884449928708
P31946,1.2496776224114519
Q93SQ1,1.2647048365584592
Q14657,1.3759062212463138
Q5I6C7,-1.1907419550625522
A5F9W9,-1.1937473978919537
H2AM12,-0.3582342913183416
H2AM12,-0.27408189209510003
P49051,-1.1907419550625522
D4A055,-0.8631486866577907
Q13185,-0.6407459172820809
Q13185,-0.34320707717133414
P19524,0.17372908948572097
Q06324,1.219623194117437
Q06324,-0.20195126418946435
Q1DB04,1.2166177512880352
Q1DB03,1.4089660923697302
Q1DB03,1.1985850943116265
Q38834,-1.1486657554509314
Q9SVY5,-1.1817256265743477
O49839,-1.1907419550625522
A0A425B3G2,0.3510502164204084
A0A425B3G2,0.522360457696293
P62068,0.9701714392771137
Q8TAF3,1.0122476388887345
Q8TBZ3,0.8168938549776383
Q8TBZ3,0.8168938549776383
Q8TBZ3,0.8168938549776383
C8YZ73,-1.1727092980861433
A4L787,-1.1847310694037492
C8YZ73,-1.1877365122331507
P33755,-0.45440846185918893
Q12824,-0.2169784783364718
Q8TAQ2,0.6816489276545714
Q8TAQ2,0.4592461582788619
A0A0U2APF4,-1.046480699251281
A0A0U2APF4,-0.7218928736759209
P19123,-0.174902278724851
P50752,0.7237251272661922
P48787,0.4051481873496348
A0A1Y1BW67,1.4871076059341688
A0A1Y1BW66,1.3879279925639199
A0A1Y1BWQ0,0.7447632270720023
Q01484,0.49230602940227824
Q9ERR1,0.13465833270350147
Q9ERR1,0.32700667378519654
P18480,1.357873564269905
P32591,1.3097864789994815
P32591,1.420987863687336
P0AEX9,-0.1508587360896393
P62942,-0.1508587360896393
P0AEX9,-0.18391860721305545
P62942,-0.18391860721305545
P0AEX9,-1.0795405703746974
P62942,-1.0795405703746974
P04295,-0.43637580488278005
P10212,-0.30413632038911487
P10217,-0.0637008940369962
Q96P70,1.0513183956709538
P06897,1.1565088947000055
P02281,1.0603347241591579
P68135,0.6455836137017537
Q86Z14,-0.7429309734817313
O95750,-1.1847310694037492
Q08209,1.213612308458634
P63098,1.4059606495403287
P19634,1.3879279925639199
P00747,1.3909334353933214
P00747,1.2947592648524742
P49054,1.2827374935348679
P23511,1.439020520663745
P25208,1.5321892483751909
Q13952,1.544211019692797
Q8N3U4,-0.4754465616649994
O60216,0.3330175594439995
P49711,-1.1937473978919537
P0DSN3,1.045307510012151
P0DSN2,1.0693510526473626
P0DSN4,0.804872083660032
Q13635,-1.1697038552567418
Q13635,-0.953311971539835
Q15465,-1.0224371566160693
P27918,0.7387523414131997
P27918,0.8679863830774636
P01024,1.4059606495403287
Q8WPU1,0.468262486767066
Q8WPU2,0.230832503244349
P02787,-0.6918384453819061
Q8NEY8,1.2797320507054666
Q8NEY8,1.3668898927581095
Q9UK61,1.1504980090412025
P0DP24,-1.1937473978919537
Q96PH1,-1.1907419550625522
Q96PH1,-1.1937473978919537
A0A0F7UZ05,1.2045959799704296
Q95UJ7,1.0242694102063408
O00934,1.0783673811355672
P37690,0.4321971728142485
P0AC30,0.5494094431609061
P0AC30,0.5674421001373153
P81877,1.46907494895776
P81877,1.3488572357817006
Q6P5Q4,-0.9322738717340247
P09493,-0.4273594763945756
P03069,-0.4273594763945756
P09493,-0.3852832767829548
P03069,-0.3852832767829548
Q96LT7,-0.31014720604791784
Q8TEV9,-0.2079621498482675
Q9HAD4,-0.19894582136006286
Q9NRR4,-0.797028944410958
Q8WYQ5,-0.4183431479063711
Q8WYQ5,-1.1877365122331507
P25084,-0.5776316178646497
A0SML3,-1.1666984124273403
A0SML3,-0.6016751604998616
Q9EQH3,0.1857508608033269
P40336,0.585474757113724
Q9QZ88,0.6846543704839729
Q5S007,-1.1907419550625522
Q5S007,-1.1907419550625522
Q5S007,-1.1907419550625522
Q99ZW2,-0.41533770507696965
P63208,0.023456948015646864
Q9UF56,0.08657124743307822
Q14145,0.1046039044094868
P37088,0.92208435400669
P51168,0.9791877677653185
P51170,1.0513183956709538
Q9H2E6,0.4502298297906571
Q9H2E6,-0.5746261750352483
V5T923,-1.1727092980861433
G2QAT9,0.32099578812639357
G2QFF9,0.8529591689304561
G2Q6R7,-0.2710764492656985
P52891,-0.6918384453819061
P36161,-0.7459364163111327
Q9Y6W8,0.06853859045666914
O75144,-1.0885568988629017
Q7CR57,0.810882969318835
Q7CR57,0.9611551107889093
A0A0F7J3Q3,0.42919172998484706
Q9V6Q2,1.0483129528415522
P84040,1.0994054809413776
Q9VEN2,0.783833983854222
Q03503,1.1114272522589834
Q02197,0.6816489276545714
P23059,0.552414885990308
O15392,0.8379319547834487
Q53HL2,0.9070571398596825
Q9NQS7,0.6545999421899581
P33339,-0.5686152893764453
P32367,-1.1847310694037492
Q12415,-0.43337036205337853
P0DP23,-0.3973050481005607
P19634,-0.003592037448966503
P19634,-0.3131526488773193
Q4QN95,1.0002258675711286
Q4QN95,1.0002258675711286
Q4QN94,1.0903891524531728
P35609,0.4742733724258693
P35609,0.38411008754382475
Q9NP98,0.22782706041494752
Q1PZD5,1.0783673811355672
Q1PZD8,1.0753619383061654
Q1PZD4,0.5403931146727017
Q8WXD5,1.3879279925639199
Q9H840,1.0813728239649687
Q8WXD5,0.7477686699014041
Q9NV88,0.6515944993605566
Q5TA45,0.02045150518624538
Q96HW7,0.2759141456853713
P17210,-0.8300888155343743
P17210,-0.7429309734817313
Q8IGY1,-1.1666984124273403
P0DTD1,1.1444871233823999
P0DTD1,1.2316449654350425
P0DTD1,1.0843782667943702
Q68E01,1.2977647076818752
Q68E01,1.2887483791936711
Q9UL03,1.3368354644640945
Q8C570,0.9882040962535226
Q6PFD9,1.4901130487635703
O41931,0.660610827848761
Q9SJ89,1.3939388782227229
Q8LBP6,1.3999497638815261
Q9XFH9,1.2857429363642694
C6SUZ2,-0.610691488988066
P19334,-0.9503065287104339
A0QPJ3,1.0182585245475375
A0QPJ2,1.2466721795820501
A0QPJ4,1.3849225497345188
Q6PAF4,1.5231729198869866
A0A1L8G3Z0,1.351862678611102
P13127,0.9821932105947196
P14315,0.7688067697072145
Q91YR1,-0.0847389938428066
P62983,0.7327414557543968
P62983,0.48028425808467196
Q99K90,0.8168938549776383
P0CG48,0.3390284451028025
Q15025,0.7507741127308056
Q15025,0.8529591689304561
L7PFJ6,0.19176174646212987
L7PFJ6,0.23984883173255347
L7PH55,-0.5565935180588394
I7M8B9,1.5622436766692056
I7M8B9,1.2376558510938458
Q22GC0,1.1114272522589834
P51149,-0.5716207322058467
P51149,0.5253659005256942
Q8NEN9,-0.27408189209510003
O15269,1.5051402629105777
O15270,1.4991293772517749
Q969W0,1.6584178472100533
O95639,0.8349265119540469
Q6UN15,0.3179903452969921
Q6UN15,0.266897817197167
Q8I060,-1.1937473978919537
A0A024X9S2,-1.1937473978919537
P07900,-0.7399255306523298
P07900,0.10760934723888828
Q15185,0.2037835177797358
A0A5J4YX67,-1.1486657554509314
P11393,-1.1366439841333253
P11393,-1.1486657554509314
A0A5J4YMI8,-1.1967528407213552
P11393,-1.1426548697921284
P11393,-1.151671198280333
A0A3Q3ANV4,-1.0885568988629017
A0A023X3C8,-1.1546766411097344
Q9NWF9,-0.4453921333709845
P0CG48,-1.14566031262153
P0CG48,-0.174902278724851
Q5ZTK6,-1.1697038552567418
Q5ZTK4,-1.1847310694037492
P0DP24,-1.1697038552567418
G0SFH5,-0.4033159337593637
G0S024,0.25187060305015957
G0SAK3,-1.0855514560335002
A0A0H2UWN8,-0.10878253647801832
Q8DWI6,0.008429733868639438
A0A0H2UWN8,-1.1576820839391357
Q09028,1.4780912774459645
Q5TKA1,1.457053177640154
Q96GY3,1.3849225497345188
Q9UM73,-1.046480699251281
Q9UM73,-0.442386690541583
Q6UX46,-0.24102202097168368
O75643,0.8439428404422517
Q9NZ63,-0.2079621498482675
P26458,1.439020520663745
P26459,1.577270890816213
O95876,0.534382229013899
Q9ULD6,0.6455836137017537
Q9BT04,0.522360457696293
C8WJ67,-1.1847310694037492
Q7LC44,-0.3822778339535533
Q63053,-0.5475771895706348
Q9Z2G0,-1.1396494269627269
Q9Z2G0,-1.1727092980861433
Q9Z2G0,-1.0554970277394855
M1H2Q1,-1.1847310694037492
O34741,0.14066921836230462
O34697,0.36307198773801436
O34697,0.11662567572709308
Q1LJU1,-0.5325499754236275
Q9UQ13,-1.1847310694037492
P62136,-1.0374643707630766
O14807,-0.878175900804798
Q9C0C9,-1.1426548697921284
P55209,-0.22298936399527475
P55209,-0.26807100643629705
S4X0T1,-0.5265390897648246
J3QS39,0.6335618423841477
J3QS39,-1.1727092980861433
P0CE48,-1.1727092980861433
A0A2A3ULE6,-1.1817256265743477
B3BM48,-1.1606875267685373
Q15858,-1.1937473978919537
Q07699,-1.1937473978919537
O60939,-1.1937473978919537
P0DTC2,-1.1907419550625522
P0DTC2,-1.1907419550625522
P0DTC2,-1.1907419550625522
P0DTC2,-1.1967528407213552
P0DTC2,-1.1967528407213552
P0DTC2,-1.1967528407213552
P35858,0.2097944034385386
P17936,0.46525704393766454
P05019,0.6846543704839729
Q7NWF2,-0.4453921333709845
P55210,0.08056036177427492
P0DP23,-0.8360997011931772
Q07817,1.2947592648524742
Q07817,1.1745415516764146
