P0A8K1,0.9520000000000001
P0A8K1,0.945
P26039,0.9420000000000001
S5MRN1,0.941
Q8BHN3,0.94
P25685,0.938
O08795,0.9359999999999999
Q9Y266,0.935
A0A3A3ATA4,0.929
A0A0B4ND47,0.927
Q8BHN3,0.924
A0A3A3ATA4,0.9209999999999999
A0A0B4ND47,0.9209999999999999
O08795,0.91
P76106,0.902
Q969W0,0.889
P22303,0.883
P61006,0.88
P04501,0.877
P04501,0.872
D4GW82,0.8690000000000001
A0A402C2V4,0.8690000000000001
A0A402C2Q3,0.8690000000000001
P04501,0.867
O35714,0.866
O35714,0.865
P76106,0.862
P22303,0.8590000000000001
Q969X0,0.857
A0A0B0QJN8,0.8540000000000001
A0A0B0QJR1,0.8540000000000001
A0A0B0QJR1,0.8540000000000001
P0A8K1,0.85
Q38BP3,0.847
P0A8K1,0.846
Q4GYA9,0.8440000000000001
O95721,0.8420000000000001
O15270,0.841
O15269,0.841
A0A083ZID3,0.838
Q14126,0.836
A0A083ZID3,0.833
P26039,0.825
Q4GYA9,0.8240000000000001
P26039,0.8240000000000001
Q38BP3,0.8240000000000001
Q9BV40,0.823
Q8EGW2,0.82
A0A083ZID4,0.8190000000000001
P56962,0.818
O95721,0.818
Q9WUU8,0.818
Q96S59,0.812
I7FT00,0.81
I7FL16,0.8079999999999999
Q9WUU8,0.807
P03707,0.802
A0A5H1ZR32,0.799
I6NWZ0,0.7979999999999999
P0CG48,0.7979999999999999
Q07837,0.7959999999999999
P26039,0.795
A0A083ZID4,0.795
P82251,0.792
I6NT79,0.7909999999999999
Q059U7,0.782
Q8IVV7,0.7809999999999999
P0CG48,0.7809999999999999
A0A0D1DWQ2,0.775
Q86WC4,0.773
P41227,0.772
Q06697,0.7709999999999999
Q8EGW3,0.769
D4GYL4,0.769
I6NWZ0,0.768
Q86WC4,0.768
I7FT00,0.765
I6NT79,0.764
Q9LPR8,0.763
P52130,0.763
Q8C456,0.762
Q9H293,0.7609999999999999
Q8EGW3,0.76
P67697,0.76
A0A0H2URC7,0.759
Q9H293,0.758
A0A447RTX7,0.757
Q39VG1,0.757
Q16820,0.7559999999999999
Q9I6W2,0.7559999999999999
W9BQC4,0.755
I7FL16,0.753
Q9I6W2,0.752
P04264,0.752
P13645,0.752
I5AX49,0.75
I5AX50,0.75
D4GW82,0.748
Q7CPW9,0.743
Q39VG2,0.742
Q9QXC1,0.741
P51798,0.741
P51798,0.738
D4GYL4,0.737
Q9GZZ1,0.736
Q8EGW2,0.735
Q8N138,0.733
Q7CPW9,0.732
P19474,0.73
P19474,0.73
Q9NRM6,0.727
Q96QK1,0.725
P55084,0.725
P40939,0.7240000000000001
Q6PIF2,0.723
P14693,0.722
Q755K3,0.721
P67697,0.721
Q9NRM6,0.72
Q9BXJ9,0.718
Q9UBQ0,0.7170000000000001
P40939,0.716
P55084,0.715
Q6PIF2,0.7120000000000001
Q39VG2,0.711
Q6UWB1,0.7090000000000001
Q14213,0.708
A0A1D6GNR3,0.7070000000000001
Q3UYI6,0.698
P38351,0.698
Q9I6W1,0.6940000000000001
Q8ZMH5,0.6920000000000001
Q9BXJ7,0.69
Q9I6W1,0.688
A0A0H2URC7,0.687
Q2G1E0,0.6859999999999999
X5DVD1,0.685
Q09293,0.684
Q8ZMH5,0.684
A0A0H2UQ08,0.6829999999999999
Q9BXU0,0.6809999999999999
Q75VW6,0.68
Q9BXU0,0.679
A0A0D1DWQ2,0.6759999999999999
S5MRN1,0.6759999999999999
Q39VG1,0.674
Q7JXA8,0.672
P0DTD1,0.67
Q8NEV9,0.669
Q755K3,0.669
Q2G1E0,0.669
A0A0H2UQ20,0.667
P19474,0.667
Q9VIF5,0.665
Q9NX55,0.662
S5MRN1,0.66
O76616,0.659
Q8NHR7,0.657
P82251,0.6559999999999999
Q07837,0.655
Q3KP22,0.655
S6FCX2,0.655
P11836,0.654
P19474,0.653
S6FCX2,0.653
P11836,0.6459999999999999
Q96QK1,0.642
P40189,0.6409999999999999
P67812,0.6409999999999999
X5DVD1,0.64
O94986,0.637
Q3KP22,0.633
Q9QXC1,0.632
Q8NHR7,0.631
A0A0H2UQ20,0.63
G0H062,0.627
Q944L3,0.625
P62137,0.624
P31946,0.624
P62137,0.624
A0A0H2UQ08,0.616
P31946,0.616
P50110,0.615
Q7JXA8,0.614
G0SGE9,0.605
Q5D6Y4,0.605
P53064,0.603
Q5D6Y4,0.603
G0S024,0.602
A2A825,0.601
Q16820,0.598
Q9UBQ0,0.598
Q6CLZ2,0.597
G0S263,0.594
Q75VW8,0.589
Q9HAD4,0.585
Q75VW6,0.5820000000000001
P89105,0.581
Q6UX46,0.581
O75376,0.58
P20929,0.58
Q9VIF5,0.5720000000000001
G0SFF7,0.5710000000000001
P0CG47,0.57
Q96LT7,0.57
O76616,0.5660000000000001
O60494,0.565
D7Y2H3,0.564
Q96RU2,0.563
P52130,0.563
A0A097I2D0,0.5579999999999999
G2R207,0.555
Q96MT8,0.5489999999999999
Q8EGZ2,0.5489999999999999
D7Y2H3,0.545
S5MRN1,0.544
P80428,0.542
A0A097I2B5,0.539
P29973,0.537
Q6FVN3,0.536
Q9XUS9,0.536
P40568,0.5329999999999999
A0A144A134,0.532
Q7TS55,0.531
G0SGE9,0.53
C4PDY5,0.528
P61009,0.527
Q9H6S1,0.526
O60494,0.525
O60494,0.523
Q7TS55,0.52
W9BQC4,0.519
O75376,0.515
P41182,0.515
Q93034,0.512
E9P977,0.51
O94986,0.509
A0A097I2B5,0.508
Q75VW8,0.508
A0A097I2D0,0.506
A0A0H2URA5,0.506
Q9BV73,0.506
P93002,0.505
Q9I708,0.505
Q5T848,0.504
P24768,0.503
Q9I707,0.503
Q13618,0.502
Q9H6S1,0.5
A0A447RTX7,0.5
Q9BV73,0.499
P41182,0.498
O75376,0.498
Q96MT8,0.4970000000000001
Q8TEV9,0.496
Q13616,0.495
P61981,0.4920000000000001
O75376,0.491
P20929,0.491
P0CG47,0.48700000000000004
Q14028,0.486
Q8EGZ2,0.484
P42575,0.484
Q09293,0.457
Q6CLZ2,0.44
P31946,0.43799999999999994
G2QAT9,0.436
P31946,0.436
P53611,0.434
Q7K5N4,0.431
Q01650,0.415
Q7K5N4,0.413
Q96RU2,0.41
G0H061,0.409
G2QAT9,0.408
Q58261,0.406
A0A0H2URA5,0.401
Q9H974,0.4
Q15005,0.4
Q9I707,0.396
Q8EGZ3,0.39399999999999996
Q9I708,0.39299999999999996
P29973,0.39
Q9BXR0,0.386
G0H061,0.386
Q5D6Y5,0.38
Q5D6Y5,0.38
Q8I0U8,0.37799999999999995
P48764,0.377
Q7Z6K3,0.374
P48764,0.369
A0A1D8PS42,0.3670000000000001
P60010,0.35600000000000004
P0A024,0.355
P0A024,0.355
Q59PZ2,0.354
G2RCY5,0.353
P0DP92,0.35100000000000003
P63208,0.35
D9I2F9,0.34700000000000003
G2RCY5,0.345
Q9QZ88,0.344
C3YRA1,0.33799999999999997
G2QV68,0.337
C3YRA1,0.337
Q5F9V6,0.335
O14746,0.332
O93807,0.33
G2QV68,0.33
P0CG48,0.327
Q9EQH3,0.327
Q9XUS9,0.326
P0DP92,0.3229999999999999
P00441,0.322
P15151,0.319
O14618,0.315
Q9XUS9,0.313
Q08AG7,0.313
O14246,0.305
M1EAS5,0.305
A0A144A134,0.305
Q9UKC9,0.304
U2EQ00,0.302
Q13137,0.299
U2EQ00,0.298
P48061,0.297
M1EBB2,0.29600000000000004
P02461,0.29600000000000004
O14246,0.295
P63208,0.29
M1EAS5,0.29
Q13137,0.28800000000000003
P0DTD1,0.28300000000000003
Q9QZ88,0.278
P08195,0.27399999999999997
P0DTD1,0.272
Q15762,0.27
C3YRA1,0.26899999999999996
C3YRA1,0.268
Q8EGZ3,0.267
Q0PF16,0.262
Q0PF16,0.262
Q8IYM2,0.261
P13304,0.261
Q86V20,0.261
Q12517,0.26
G0S4T0,0.259
Q14432,0.258
Q86SQ9,0.255
Q10432,0.254
P16772,0.254
P40969,0.249
Q99653,0.24600000000000002
O93807,0.24600000000000002
Q99653,0.24600000000000002
Q74H36,0.245
Q9V727,0.244
Q5T848,0.24
Q8I0U8,0.24
Q10432,0.239
P70060,0.239
Q39234,0.239
P02461,0.237
Q8ZL98,0.23600000000000002
Q74H36,0.23600000000000002
P52129,0.235
Q25922,0.235
G2QFF9,0.23199999999999998
Q9EQH3,0.23199999999999998
Q9V727,0.231
P52129,0.23
G2QFF9,0.22899999999999998
P53973,0.22899999999999998
Q57968,0.226
B7LFT6,0.22399999999999998
Q96CW5,0.223
P61024,0.22
Q18CJ4,0.21899999999999997
Q9UF56,0.218
P02461,0.215
P62137,0.214
P06493,0.214
Q9BYB0,0.213
P62137,0.212
Q08951,0.212
P93002,0.21
Q96E22,0.209
Q6FVN3,0.209
P0CG47,0.205
P40568,0.204
P80428,0.204
P0CG47,0.201
Q9Y6A9,0.195
Q6ZNX1,0.19399999999999998
P62942,0.192
P13304,0.182
Q9UM73,0.18100000000000002
P62942,0.17800000000000002
A0A6A5Q0M1,0.17800000000000002
B3CVM3,0.177
A0A8H8ULJ2,0.177
Q5F651,0.17600000000000002
P0CG48,0.174
Q66K64,0.17
Q8ZL98,0.168
G0SFF7,0.168
P0DTC3,0.1669999999999999
P62881,0.165
P02786,0.163
Q16531,0.163
Q16531,0.163
P02786,0.162
P0DTC3,0.16
Q5ZSI8,0.157
Q74H35,0.157
Q9UI95,0.155
Q2G1E0,0.153
Q5ZSI8,0.151
P04049,0.151
P0ADJ3,0.15
P30052,0.149
P40969,0.14300000000000002
P0ADJ3,0.14300000000000002
P53973,0.14
P60010,0.14
P52891,0.138
P07900,0.136
P53550,0.134
Q6ZNX1,0.127
Q13263,0.127
Q26366,0.126
P52286,0.126
Q9H4L7,0.125
P07900,0.12300000000000001
A0A0H3PJL7,0.12300000000000001
Q9BYB0,0.122
P14635,0.121
A0A0H3PJL7,0.121
Q39234,0.11800000000000001
P12824,0.111
B7LFT7,0.109
P36161,0.109
O14618,0.10800000000000001
P21951,0.106
P35203,0.105
P00441,0.105
Q96QU1,0.105
Q96QU1,0.105
P25106,0.1
P02647,0.1
B7LFT4,0.099
P49802,0.098
Q96QU1,0.09699999999999999
Q96QU1,0.09699999999999999
P46682,0.08900000000000001
Q14498,0.08800000000000001
Q9UI95,0.08800000000000001
Q26366,0.08800000000000001
B7LFT7,0.087
P02647,0.087
O34412,0.087
D7Y2H2,0.085
D7Y2H2,0.084
P01116,0.081
P61224,0.08
Q06629,0.079
P30052,0.076
O31779,0.07
P16832,0.069
A0A0H3PJK4,0.066
Q14416,0.064
Q14416,0.063
Q9UI95,0.062
Q9CWH4,0.059000000000000004
A0A0H3PJK4,0.059000000000000004
Q180W3,0.057
W8L932,0.055999999999999994
Q8ZL98,0.046
D9I2F9,0.046
Q16082,0.043
X5DVD1,0.037000000000000005
A0A2U7VKE8,0.036000000000000004
P11393,0.034
Q99PJ1,0.032
Q4KL25,0.032
A0A6A5Q0M1,0.03
A0A8H8ULJ2,0.028999999999999998
P02647,0.028999999999999998
Q9CWH4,0.027999999999999997
A0A0H2UQH5,0.027999999999999997
Q99PJ1,0.027000000000000003
P02647,0.027000000000000003
Q4KL25,0.026000000000000002
Q16082,0.026000000000000002
G0S156,0.025
P37869,0.024
P06808,0.023
G0SAK3,0.022000000000000002
O48414,0.021
Q16082,0.021
