P08169,0.001
P01344,0.001
Q96Q15,0.001
Q13263,0.002
Q96P20,0.003
Q9Y2I7,0.003
Q8TDX7,0.003
P20796,0.003
P22747,0.003
Q5GH54,0.004
Q9HAR2,0.004
O95271,0.004
O95271,0.004
P38772,0.004
Q9ULK4,0.004
Q9NT68,0.004
P40161,0.004
E9DVV4,0.005
P02788,0.005
E9DVV4,0.005
Q9JYK4,0.005
J7RUA5,0.006
B8ZXI1,0.006
P52630,0.006
Q32ZE1,0.006
P43235,0.0069999999999999
P43235,0.0069999999999999
Q63424,0.0069999999999999
O43157,0.008
Q13530,0.008
Q99ZW2,0.008
Q99ZW2,0.008
P11684,0.008
Q5VWP2,0.008
O00444,0.008
D3KU53,0.008
P0C6U8,0.009000000000000001
Q9H074,0.009000000000000001
Q8PND9,0.011000000000000001
A0A0F6AZI6,0.011000000000000001
Q8PJX9,0.011000000000000001
Q8NBP7,0.011000000000000001
Q04207,0.011000000000000001
P9WNW1,0.011000000000000001
P9WNW1,0.011000000000000001
A0A2Z6G7U3,0.011000000000000001
A0A2Z6G7U6,0.011000000000000001
P21860,0.012
P61088,0.013999999999999999
Q8ND25,0.013999999999999999
Q5JSS6,0.013999999999999999
Q96M98,0.013999999999999999
A1IQ68,0.015
A0A425B395,0.015
J7RUA5,0.016
A0A182DWE3,0.017
Q96CW5,0.017
Q2G1E0,0.02
X5DVD1,0.02
Q9Z4N2,0.027000000000000003
P02788,0.027000000000000003
Q3KSR8,0.028999999999999998
Q3KSR8,0.028999999999999998
D3ZDG4,0.032
Q63155,0.032
A0A060BIS8,0.034
Q8AZ57,0.034
C4B8B7,0.034
Q6K647,0.034
P30659,0.035
P60508,0.035
Q8NA29,0.035
P41586,0.035
P44543,0.043
Q74M37,0.047
Q74N74,0.047
Q6IVU0,0.05
Q6UY77,0.05
Q5ZXN6,0.054000000000000006
Q9H0U4,0.054000000000000006
Q13635,0.054000000000000006
O60462,0.06
Q15750,0.06
C5ILC1,0.06
Q15750,0.06
P0A6A8,0.06
P32364,0.062
P19524,0.062
P0DP23,0.063
Q92736,0.063
P0DP24,0.076
Q14524,0.076
P18627,0.078
P21926,0.0819999999999999
P01375,0.095
P63096,0.105
P63096,0.105
B1H241,0.105
Q1Q7P4,0.11599999999999999
Q1Q7P3,0.11599999999999999
O95997,0.11900000000000001
Q14674,0.11900000000000001
Q5XX01,0.12300000000000001
Q5T9L3,0.134
Q3U0P1,0.14800000000000002
P48754,0.14800000000000002
Q9NS87,0.153
Q96EK5,0.153
Q59FF6,0.158
P0CG47,0.158
Q5VTY9,0.159
P01116,0.1669999999999999
Q9BPZ7,0.1669999999999999
P49054,0.1689999999999999
P00747,0.1689999999999999
Q09312,0.17
Q9Y5U4,0.171
Q12770,0.171
Q9Y613,0.187
Q8WXH0,0.187
P0DP23,0.18899999999999997
O00418,0.18899999999999997
O00418,0.18899999999999997
Q12692,0.191
P02293,0.191
P02293,0.191
Q12692,0.191
A1ZAW0,0.204
M9MRT5,0.204
P21244,0.214
B7UM99,0.214
P35672,0.21600000000000005
P0CL43,0.21600000000000005
P0DTC9,0.22
P0DTD1,0.22
F2R911,0.223
Q02108,0.226
Q02153,0.226
Q14973,0.24600000000000002
Q8NHL6,0.251
Q8NHL6,0.251
O29890,0.263
O29889,0.263
P06179,0.28
P26609,0.28
P40729,0.28
Q9UBS5,0.284
O75899,0.284
Q970I2,0.292
Q970I1,0.292
Q970I2,0.3
Q970I1,0.3
A0A7Z7PMS6,0.301
A0A7Z7PMI3,0.301
P0DTD2,0.313
A0A0M7ENE2,0.321
F5H747,0.3229999999999999
A0A509GV61,0.3229999999999999
Q6IYF9,0.33
Q24008,0.335
P13217,0.335
P35637,0.35100000000000003
Q92973,0.35100000000000003
Q92973,0.35100000000000003
P01027,0.359
Q7T2G3,0.371
Q5ZKX9,0.371
P62491,0.371
O60239,0.371
Q7T2G3,0.371
Q57WF2,0.3720000000000001
Q57WF2,0.3720000000000001
Q05086,0.38799999999999996
P55036,0.38799999999999996
P36048,0.389
P33334,0.389
P08753,0.39299999999999996
P39375,0.396
V0SNG0,0.396
Q8IYU8,0.413
Q9BPX6,0.413
Q9UBU8,0.41700000000000004
Q86YC2,0.41700000000000004
Q4G0J3,0.418
Q7L2J0,0.418
Q6PGF2,0.428
P0AEX9,0.439
Q8TEV9,0.439
Q12306,0.439
Q96LT7,0.439
Q8TEV9,0.439
P56704,0.44
Q5T9L3,0.44
Q9H1I8,0.45299999999999996
Q8N3C0,0.45299999999999996
Q9HXA5,0.455
Q9HXA6,0.455
A0A3L6LBE5,0.478
A0A3L6L5Q1,0.478
W1J0W9,0.491
A0A3D9UGN9,0.491
O95970,0.494
Q9P0K1,0.494
Q9NWF9,0.504
Q9NWF9,0.504
A0A0H3JUU7,0.505
A0A0H3JN63,0.505
P9WKX5,0.517
Q08924,0.522
P38238,0.522
Q73HU7,0.523
Q73HU7,0.523
Q9FN03,0.524
P43254,0.524
Q6PAT0,0.526
Q6P6J0,0.526
A0A3W2RZ19,0.528
Q8IY92,0.53
Q96NY9,0.53
Q2FXF4,0.536
Q2YYX7,0.536
Q6BBR6,0.542
Q6BBR6,0.542
Q5ZTK6,0.545
P06787,0.545
P38850,0.5529999999999999
P38850,0.5529999999999999
P0C2N2,0.556
P0C2N4,0.556
Q9CS84,0.56
Q63366,0.56
Q977Y4,0.564
Q97KK2,0.564
P13433,0.5670000000000001
P14908,0.5670000000000001
H0QPL9,0.5710000000000001
H0QPL8,0.5710000000000001
G0SGW7,0.5720000000000001
G0S539,0.5720000000000001
Q8NHR7,0.575
Q8NA31,0.575
A8GG78,0.5760000000000001
A8GG79,0.5760000000000001
O60674,0.578
O60674,0.578
P24482,0.58
P21951,0.58
A0A5B8WHG9,0.586
A0A5B8WHG9,0.586
Q73HD5,0.586
Q9NRN9,0.586
A0A5B8WHG9,0.586
A0A5B8WHG9,0.586
Q73HD5,0.586
Q73HD5,0.586
Q73HD5,0.586
A0A5B8WHG9,0.586
Q73HD5,0.586
A0A5B8WHG9,0.586
Q73HD5,0.586
Q9UI30,0.586
B3CP63,0.586
Q73HD5,0.586
A0A2D2D5M1,0.59
A0A2D2D5M1,0.59
P18074,0.593
P18074,0.593
Q9HUV7,0.594
G3XD98,0.594
A3DBH0,0.597
A3DBH1,0.597
E6N8B9,0.597
E6N8B9,0.597
Q15006,0.607
Q9Y3B6,0.607
P06159,0.608
P06162,0.608
Q8ZPY9,0.609
P84077,0.609
Q9SVY5,0.61
Q38834,0.61
Q75B58,0.621
Q753G8,0.621
Q15003,0.622
Q9BPX3,0.622
P01031,0.625
L7MB58,0.625
D9IEF7,0.629
Q69XJ0,0.629
Q6Z156,0.629
P06858,0.63
P06858,0.63
P20103,0.634
P20103,0.634
Q8W420,0.635
Q9SQI2,0.635
B5Y0C2,0.638
P62136,0.644
P62136,0.644
Q9UQB8,0.644
Q9UQB8,0.644
O31602,0.65
Q5L1S1,0.65
Q5ZSZ7,0.6559999999999999
Q5ZSZ6,0.6559999999999999
P33775,0.6579999999999999
P31382,0.6579999999999999
A0QTS0,0.6609999999999999
A0QTR9,0.6609999999999999
B6YWB8,0.665
B6YWC1,0.665
G0S825,0.6659999999999999
G0S0S7,0.6659999999999999
G0S825,0.6659999999999999
A0A3N1Q704,0.667
P42285,0.672
P42285,0.672
Q6NZY4,0.672
A7VN14,0.6759999999999999
Q8JI39,0.6759999999999999
Q96EP0,0.69
P68036,0.69
F8TEL4,0.691
P38920,0.6920000000000001
B5Z6T1,0.6920000000000001
B5Z7D6,0.6920000000000001
Q12083,0.6920000000000001
G0SC54,0.693
G0SC54,0.693
P32767,0.6940000000000001
P50623,0.6940000000000001
Q96SY0,0.698
Q9NVM9,0.698
Q07820,0.698
P31040,0.6990000000000001
Q9NX18,0.6990000000000001
Q8LTE4,0.7
Q8LTE3,0.7
Q9SQK3,0.706
Q05753,0.706
G0SFP0,0.71
G0SCU4,0.71
A0A7Y0N2V2,0.7120000000000001
A0A1W6VDB9,0.7120000000000001
Q96524,0.718
Q96524,0.718
G0SHE6,0.7190000000000001
G0SFB5,0.7190000000000001
G0SHE6,0.7190000000000001
P20067,0.725
P37562,0.725
P15923,0.725
Q8DNZ9,0.726
Q9V3H8,0.726
Q9U1H9,0.726
Q8DNZ9,0.726
P15151,0.7290000000000001
Q8K4F0,0.7290000000000001
O14246,0.732
O13988,0.732
A0A1S4F020,0.737
A0A1S4F020,0.737
A0A2A2CAY5,0.737
A0A2A2CAY5,0.737
Q6CTL1,0.741
Q6CNW4,0.741
P35728,0.741
Q06224,0.741
F1MQJ3,0.743
F1MQJ3,0.743
A0A0C5XKJ0,0.743
A0A0C5XL88,0.743
Q9V1Z9,0.7440000000000001
Q86V25,0.745
Q8N300,0.745
G0SBJ6,0.745
G0SB82,0.745
W5SB08,0.746
W5SB08,0.746
P08603,0.746
P07237,0.75
P07237,0.75
P22455,0.7509999999999999
Q8NDI1,0.755
Q3KP22,0.755
Q8NDI1,0.755
Q3KP22,0.755
Q6ZNX1,0.7559999999999999
Q9UI95,0.7559999999999999
P39524,0.757
P01024,0.758
Q587F5,0.758
G0SGS3,0.758
Q47NS3,0.759
Q47NS0,0.759
A0A5H1ZR49,0.76
Q9H6T3,0.76
Q15633,0.76
A0A5H1ZR49,0.76
O95551,0.764
P0CG48,0.764
P50382,0.7659999999999999
G0RZC6,0.7659999999999999
G0SED1,0.7659999999999999
P02768,0.7659999999999999
P50383,0.7659999999999999
P02768,0.7659999999999999
G0S1V1,0.767
G0S1V1,0.767
G0RZ64,0.767
P84308,0.768
P84253,0.768
P27918,0.769
P27918,0.769
Q06198,0.77
P38107,0.77
G0SEG4,0.773
Q9H8S9,0.7759999999999999
Q9H8S9,0.7759999999999999
P0CK47,0.78
P03185,0.78
Q8NHL6,0.794
Q03718,0.794
P40026,0.794
Q12306,0.794
Q8I4N9,0.794
A0A318JQQ2,0.7959999999999999
A0A318JWT9,0.7959999999999999
D5K9G7,0.8
Q8DWI6,0.8
A0A0H2UWN8,0.8
D5K9E3,0.8
Q9BXP5,0.8009999999999999
Q2G285,0.8009999999999999
Q9BXP5,0.8009999999999999
Q2G286,0.8009999999999999
Q9UGM5,0.804
P07584,0.804
Q5SXA9,0.8079999999999999
P61006,0.809
Q29ST3,0.809
Q07960,0.812
P61586,0.812
O94782,0.816
Q8TAF3,0.816
A0A6B9UEV8,0.8190000000000001
Q8I211,0.8190000000000001
P0DTD1,0.826
P08142,0.826
P08142,0.826
P09874,0.83
Q9NWY4,0.83
Q9AEM2,0.831
Q9AEM2,0.831
P0C1C6,0.833
O00629,0.833
P02533,0.8340000000000001
P13647,0.8340000000000001
Q15404,0.8340000000000001
P48059,0.8340000000000001
P0CG48,0.8370000000000001
B1EF49,0.8370000000000001
Q9F0J8,0.8370000000000001
Q4ZDP4,0.8370000000000001
P40200,0.838
P0C6X7,0.8390000000000001
P0C6U8,0.8390000000000001
Q8TAC2,0.8390000000000001
P0CG47,0.8390000000000001
Q6DV88,0.84
P03314,0.84
Q7K5N4,0.8420000000000001
Q7K5N4,0.8420000000000001
Q7K5N4,0.8420000000000001
Q7K5N4,0.8420000000000001
O43583,0.8420000000000001
Q9ULC4,0.8420000000000001
Q9P202,0.846
Q8VDU0,0.846
Q9LSX7,0.8490000000000001
Q8LGF7,0.8490000000000001
Q86SQ9,0.85
Q96E22,0.85
P08240,0.851
P61011,0.851
Q6MX01,0.8540000000000001
P9WGI1,0.8540000000000001
P9WGY9,0.8540000000000001
O08795,0.855
A1A4T2,0.855
P39001,0.855
P22579,0.855
Q8GQE7,0.858
Q12460,0.858
P15646,0.858
A0A0H3KLY3,0.858
P16009,0.86
Q9H6T3,0.86
P04629,0.86
P04629,0.86
