Q13148,0.1654
Q13148,0.1654
Q13148,0.1654
Q13148,0.1654
Q62640,0.17663
Q62640,0.17663
Q62640,0.17663
Q62640,0.17663
P21256,0.21999000000000002
P13304,0.22371
B0STJ8,0.2237199999999999
Q5ZSQ2,0.2347
Q5ZSQ2,0.2347
Q5ZSQ2,0.2347
Q5ZSQ2,0.2347
Q9KL64,0.2355699999999999
Q9KL64,0.2355699999999999
Q9KL64,0.2355699999999999
Q9KL64,0.2355699999999999
Q9HVU1,0.2406
Q9HVU1,0.2406
Q9HVU1,0.2406
Q9HVU1,0.2406
Q8SS09,0.24351
Q8SS09,0.24351
P21926,0.2479699999999999
P21926,0.2479699999999999
P21926,0.2479699999999999
P21926,0.2479699999999999
P17931,0.2488199999999999
P17931,0.2488199999999999
P17931,0.2488199999999999
P17931,0.2488199999999999
O94979,0.25101
O94979,0.25101
O94979,0.25101
O94979,0.25101
Q93008,0.25397
Q93008,0.25397
Q93008,0.25397
Q93008,0.25397
Q8CVD0,0.2617
Q9X1H2,0.26335
Q9X1H2,0.26335
Q9X1H2,0.26335
Q9X1H2,0.26335
Q7WSM9,0.26731
Q7WSM9,0.26731
Q7WSM9,0.26731
Q7WSM9,0.26731
Q63226,0.2786
Q63226,0.2786
Q63226,0.2786
Q63226,0.2786
Q5SLP8,0.27941
Q5SLP8,0.27941
Q5SLP8,0.27941
Q5SLP8,0.27941
A8P1J0,0.28697
A8P1J0,0.28697
A0A1H7TQR5,0.28699
A0A1H7TQR5,0.28699
A0A1H7TQR5,0.28699
A0A1H7TQR5,0.28699
P0ADP7,0.29386
P0ADP7,0.29386
P0ADP7,0.29386
P0ADP7,0.29386
A0A140EEF9,0.29749000000000003
A0A140EEF9,0.29749000000000003
A0A140EEF9,0.29749000000000003
A0A140EEF9,0.29749000000000003
P50405,0.30694
P50405,0.30694
P50405,0.30694
P50405,0.30694
Q5JTJ3,0.30708
Q5JTJ3,0.30708
Q5JTJ3,0.30708
Q5JTJ3,0.30708
Q9UHP3,0.3086
Q9UHP3,0.3086
Q9W2H9,0.31666
Q9VV73,0.31666
Q9W2H9,0.31666
Q9W2H9,0.31666
Q9VV73,0.31666
Q9VV73,0.31666
Q15532,0.32355
B9EGQ8,0.32355
Q15532,0.32355
B9EGQ8,0.32355
Q15532,0.32355
B9EGQ8,0.32355
Q15532,0.32355
B9EGQ8,0.32355
X5IFG3,0.33389
X5IFG3,0.33389
X5IFG3,0.33389
X5IFG3,0.33389
E9DVV4,0.35525
E9DVV4,0.35525
E9DVV4,0.35525
E9DVV4,0.35525
Q8DR57,0.36112
Q8DR57,0.36112
Q8DR57,0.36112
Q8DR57,0.36112
Q6ZWB6,0.36409
Q6ZWB6,0.36409
Q6ZWB6,0.36409
Q6ZWB6,0.36409
K0JNC6,0.37354
K0JNC6,0.37354
K0JNC6,0.37354
K0JNC6,0.37354
Q63NA5,0.38127
Q63NA5,0.38127
Q63NA5,0.38127
Q63NA5,0.38127
P02545,0.3952699999999999
P02545,0.3952699999999999
Q65NA4,0.40698
Q65NA4,0.40698
A0A5B9TEE9,0.4132699999999999
A0A5B9TEE9,0.4132699999999999
A3NFC3,0.41476
A3NFC3,0.41476
Q15431,0.43268
Q15431,0.43268
Q8GXJ4,0.4376
Q8GXJ4,0.4376
Q8GXJ4,0.4376
Q8GXJ4,0.4376
O68216,0.44342
O68216,0.44342
P9WMU1,0.4476699999999999
P9WMU1,0.4476699999999999
A0A100JVX1,0.4506699999999999
A0A100JVX1,0.4506699999999999
A0A100JVX1,0.4506699999999999
A0A100JVX1,0.4506699999999999
P40959,0.46065
P40959,0.46065
P40959,0.46065
P40959,0.46065
E9RIY6,0.4673899999999999
E9RIY6,0.4673899999999999
Q1WK45,0.46828000000000003
Q1WK45,0.46828000000000003
Q1WK45,0.46828000000000003
Q1WK45,0.46828000000000003
A0A2S6F197,0.47447
A0A2S6F197,0.47447
A0A2S6F197,0.47447
A0A2S6F197,0.47447
J8G6Z1,0.47631
J8G6Z1,0.47631
J8G6Z1,0.47631
J8G6Z1,0.47631
A1B2F4,0.47693
A1B2F4,0.47693
A1B2F4,0.47693
A1B2F4,0.47693
H7CRF0,0.4783699999999999
H7CRF0,0.4783699999999999
Q4R0L3,0.47998
Q4R0L3,0.47998
Q4R0L3,0.47998
Q4R0L3,0.47998
A0A425B3G2,0.48185
A0A425B3G2,0.48185
P0AEW6,0.48382
P0AEW6,0.48382
P0AEW6,0.48382
P0AEW6,0.48382
P35610,0.4839199999999999
P35610,0.4839199999999999
P35610,0.4839199999999999
P35610,0.4839199999999999
C4NCJ7,0.4868399999999999
C4NCJ7,0.4868399999999999
Q5HYM0,0.48921000000000003
Q5HYM0,0.48921000000000003
P09758,0.4904199999999999
P09758,0.4904199999999999
P09758,0.4904199999999999
P09758,0.4904199999999999
B8NJH3,0.4913
B8NJH3,0.4913
A0A077EHW1,0.4924199999999999
A0A077EHW1,0.4924199999999999
A0A077EHW1,0.4924199999999999
A0A077EHW1,0.4924199999999999
Q9H9S5,0.4924699999999999
Q9H9S5,0.4924699999999999
Q9H9S5,0.4924699999999999
Q9H9S5,0.4924699999999999
A9CQL4,0.49333
A9CQL4,0.49333
A9CQL4,0.49333
A9CQL4,0.49333
A0A0U1X4V6,0.49572
A0A0U1X4V6,0.49572
A0A0U1X4V6,0.49572
A0A0U1X4V6,0.49572
Q57CD7,0.49859
Q57CD7,0.49859
Q57CD7,0.49859
Q57CD7,0.49859
A9DF82,0.50369
A9DF82,0.50369
A9DF82,0.50369
A9DF82,0.50369
F5SWR8,0.5040100000000001
F5SWR8,0.5040100000000001
F5SWR8,0.5040100000000001
F5SWR8,0.5040100000000001
G3FFN6,0.5063
G3FFN6,0.5063
Q8I2Q0,0.50934
Q8I2Q0,0.50934
Q8I2Q0,0.50934
Q8I2Q0,0.50934
P49792,0.5119199999999999
P49792,0.5119199999999999
P49792,0.5119199999999999
P49792,0.5119199999999999
Q1D489,0.51413
Q1D489,0.51413
Q1D489,0.51413
Q9BXU0,0.51532
Q9BXU0,0.51532
Q58XI2,0.51632
Q58XI2,0.51632
Q58XI2,0.51632
Q58XI2,0.51632
Q09808,0.5220100000000001
Q09808,0.5220100000000001
Q385X1,0.5370699999999999
Q385X1,0.5370699999999999
Q385X1,0.5370699999999999
Q385X1,0.5370699999999999
B8H4R9,0.54381
B8H4R9,0.54381
B8H4R9,0.54381
B8H4R9,0.54381
Q9WUU8,0.5445300000000001
Q9WUU8,0.5445300000000001
Q9WUU8,0.5445300000000001
Q9WUU8,0.5445300000000001
C4M4U3,0.5476
C4M4U3,0.5476
C4M4U3,0.5476
C4M4U3,0.5476
A0A0F8IEL4,0.54855
A0A0F8IEL4,0.54855
A0A0F8IEL4,0.54855
A0A0F8IEL4,0.54855
O69980,0.54964
O69980,0.54964
O69980,0.54964
O69980,0.54964
A0A6J4AG16,0.55943
A0A6J4AG16,0.55943
A0A6J4AG16,0.55943
A0A6J4AG16,0.55943
Q2T7K1,0.55989
Q2T7K1,0.55989
Q2T7K1,0.55989
Q2T7K1,0.55989
A0A6I8WFL9,0.5734100000000001
A0A6I8WFL9,0.5734100000000001
A0A6I8WFL9,0.5734100000000001
A0A6I8WFL9,0.5734100000000001
Q14204,0.57638
Q14204,0.57638
Q14204,0.57638
Q14204,0.57638
Q15431,0.57844
A0A0L6JMH4,0.59795
A0A0L6JMH4,0.59795
A0A0L6JMH4,0.59795
A0A0L6JMH4,0.59795
Q9S5W7,0.6039800000000001
Q9S5W7,0.6039800000000001
Q9S5W7,0.6039800000000001
Q9S5W7,0.6039800000000001
Q08CF3,0.62074
Q08CF3,0.62074
P02545,0.6287
P02545,0.6287
P02545,0.6287
P02545,0.6287
Q9BXU0,0.6433
Q9BXU0,0.6433
P72321,0.65545
P72321,0.65545
P72321,0.65545
P72321,0.65545
Q86WV6,0.6726300000000001
Q86WV6,0.6726300000000001
Q86WV6,0.6726300000000001
Q86WV6,0.6726300000000001
C8VJQ3,0.68467
C8VJQ3,0.68467
P81877,0.68989
P81877,0.68989
A7AG62,0.72511
A7AG62,0.72511
A7AG62,0.72511
A7AG62,0.72511
W2SDE2,0.7359100000000001
W2SDE2,0.7359100000000001
W2SDE2,0.7359100000000001
W2SDE2,0.7359100000000001
A0A2Z4G9P0,0.7428
A0A2Z4G9P0,0.7428
A0A2Z4G9P0,0.7428
A0A2Z4G9P0,0.7428
Q15431,0.7441
B8NJH3,0.77281
B8NJH3,0.77281
Q8I224,0.77693
Q8I224,0.77693
Q8I224,0.77693
Q8I224,0.77693
Q7Z6Z7,0.77791
Q7Z6Z7,0.77791
Q8GGD4,0.78714
Q8GGD4,0.78714
Q8GGD4,0.78714
Q8GGD4,0.78714
A0A0M2HE71,0.8056
A0A0M2HE71,0.8056
A0A0M2HE71,0.8056
A0A0M2HE71,0.8056
A0A2T6C3M6,0.80834
A0A2T6C3M6,0.80834
A0A2T6C3M6,0.80834
A0A2T6C3M6,0.80834
P03421,0.81443
P03421,0.81443
P03421,0.81443
P03421,0.81443
Q9BRV8,0.83352
Q9BRV8,0.83352
A0A0H2ZNA4,0.85709
Q9A385,0.8715200000000001
Q9BUN8,0.8887700000000001
Q9BUN8,0.8887700000000001
Q9BUN8,0.8887700000000001
Q9BUN8,0.8887700000000001
O75334,0.89049
O75334,0.89049
O75334,0.89049
O75334,0.89049
Q57W63,0.8927299999999999
Q57W63,0.8927299999999999
P21678,0.8961600000000001
P21678,0.8961600000000001
P21678,0.8961600000000001
P21678,0.8961600000000001
Q57W63,0.8983700000000001
Q57W63,0.8983700000000001
Q8JPY0,0.90354
Q8JPY0,0.90354
Q8JPY0,0.90354
Q8JPY0,0.90354
Q74P26,0.9101799999999999
Q74P26,0.9101799999999999
Q74P26,0.9101799999999999
Q74P26,0.9101799999999999
A0KLE2,0.91194
Q9Y210,0.9126200000000001
Q9Y210,0.9126200000000001
Q9Y210,0.9126200000000001
Q9Y210,0.9126200000000001
Q8YMD9,0.91375
Q8YMD9,0.91375
Q58T34,0.9172299999999999
Q58T34,0.9172299999999999
Q58T34,0.9172299999999999
Q58T34,0.9172299999999999
Q57W63,0.92351
Q57W63,0.92351
A0A144A134,0.9240299999999999
A0A144A134,0.9240299999999999
A0A144A134,0.9240299999999999
A0A144A134,0.9240299999999999
A0A332QZQ2,0.92494
A0A332QZQ2,0.92494
A0A332QZQ2,0.92494
A0A332QZQ2,0.92494
B2J0I0,0.93534
B2J0I0,0.93534
B2J0I0,0.93534
B2J0I0,0.93534
Q8X0D9,0.94878
Q8X0D9,0.94878
Q8X0D9,0.94878
Q8X0D9,0.94878
O75334,0.94984
O75334,0.94984
O75334,0.94984
O75334,0.94984
P11208,0.9500200000000001
P11208,0.9500200000000001
E9RJ22,0.95135
E9RJ22,0.95135
Q7VLF5,0.9537200000000001
Q7VLF5,0.9537200000000001
Q7VLF5,0.9537200000000001
Q7VLF5,0.9537200000000001
Q0P8I7,0.95376
Q0P8I7,0.95376
Q0P8I7,0.95376
Q0P8I7,0.95376
Q11HA4,0.95378
Q11HA4,0.95378
Q11HA4,0.95378
Q11HA4,0.95378
Q5H8A6,0.9544100000000001
Q981B2,0.9558200000000001
Q981B2,0.9558200000000001
Q981B2,0.9558200000000001
Q981B2,0.9558200000000001
Q95RQ8,0.9604600000000001
Q95RQ8,0.9604600000000001
Q95RQ8,0.9604600000000001
Q95RQ8,0.9604600000000001
Q57FR6,0.96183
Q57FR6,0.96183
Q9NZV8,0.96606
Q9NZV8,0.96606
Q9NZV8,0.96606
Q9NZV8,0.96606
Q4D6Q6,0.9709
Q4D6Q6,0.9709
Q4D6Q6,0.9709
Q4D6Q6,0.9709
E2GIN1,0.97246
E2GIN1,0.97246
E2GIN1,0.97246
E2GIN1,0.97246
A9CJ36,0.9734
A9CJ36,0.9734
A9CJ36,0.9734
A9CJ36,0.9734
A0A7U3TBV3,0.97608
A0A7U3TBV3,0.97608
A0A7U3TBV3,0.97608
A0A7U3TBV3,0.97608
P07278,0.97921
P07278,0.97921
P07278,0.97921
P07278,0.97921
A0A1S6PUA4,0.9805299999999999
A0A1S6PUA4,0.9805299999999999
A0A1S6PUA4,0.9805299999999999
A0A1S6PUA4,0.9805299999999999
Q9NWC5,0.9812299999999999
Q9NWC5,0.9812299999999999
Q9NWC5,0.9812299999999999
Q9NWC5,0.9812299999999999
Q9VNW6,0.98219
Q9VNW6,0.98219
Q9VNW6,0.98219
Q9VNW6,0.98219
P83111,0.98269
P83111,0.98269
P83111,0.98269
P83111,0.98269
Q9I3A0,0.9835
Q9I3A0,0.9835
Q9I3A0,0.9835
Q9I3A0,0.9835
Q831Y8,0.9840700000000001
Q831Y8,0.9840700000000001
O15554,0.9841799999999999
O15554,0.9841799999999999
Q9LMN2,0.9848
Q9LMN2,0.9848
Q9LMN2,0.9848
Q9LMN2,0.9848
A0A174CQK8,0.9849399999999999
A0A174CQK8,0.9849399999999999
A0A174CQK8,0.9849399999999999
A0A174CQK8,0.9849399999999999
Q6MQ71,0.9855299999999999
P53396,0.98554
P53396,0.98554
O06581,0.9859399999999999
O06581,0.9859399999999999
Q9E006,0.98746
Q9E006,0.98746
Q9E006,0.98746
Q9E006,0.98746
P36771,0.98888
P36771,0.98888
