P03421,0.0
P35203,0.0
A0PGB2,0.0
P0DTD1,0.0
Q23AJ0,0.0
P03421,0.0
P03421,0.0
P03421,0.0
A0A1J5IBV5,0.001
P19812,0.001
P0CG47,0.001
P0CG47,0.001
P0DTD1,0.001
B6ZK67,0.001
P40969,0.001
A0A6I8TEX2,0.001
P28887,0.001
Q71014,0.001
P52286,0.001
Q6JXI5,0.001
D2CVN7,0.001
A5JW88,0.001
Q71014,0.002
A0A1J5ID92,0.002
A0A6I8TEX2,0.003
P0ABE7,0.003
A0A6I8TEX2,0.004
A0A1J5IBV5,0.005
P06104,0.005
Q16J57,0.0069999999999999
D2CVN8,0.01
B1H241,0.013000000000000001
P10824,0.015
A0A1J5IBV5,0.033
P0DTD1,0.036000000000000004
P0ADJ3,0.057999999999999996
A0A1J5ID92,0.059000000000000004
G3IEF0,0.07400000000000001
P01876,0.083
P01876,0.087
B6ZK67,0.10300000000000001
B6ZK67,0.136
P11215,0.14
P00347,0.14400000000000002
Q5VTY9,0.154
P0DTD1,0.16
P32504,0.166
Q8I6T1,0.172
P0DP92,0.172
P39984,0.175
P0DP92,0.17800000000000002
P0ABE7,0.188
Q12341,0.188
P06654,0.196
P99134,0.196
A0A4Z0THX4,0.196
P61830,0.196
Q12749,0.204
O14746,0.207
Q4WXX5,0.20800000000000002
B6ZK67,0.209
A0A494C0X7,0.221
P0DTD1,0.223
P08195,0.223
P01878,0.225
G2Q1C9,0.228
P01878,0.244
P0ADJ3,0.245
Q08204,0.253
P02309,0.258
P01878,0.26
P40969,0.26
G2Q5N0,0.262
G2Q0E2,0.264
P01878,0.275
Q71014,0.28
P38251,0.301
B6ZK67,0.317
Q96RK4,0.318
P32641,0.349
P0DKX7,0.396
P29376,0.419
P29376,0.428
P40339,0.433
P38629,0.44299999999999995
P40348,0.466
Q8NFJ9,0.512
P53877,0.537
P38883,0.5589999999999999
P38883,0.561
Q8N138,0.562
L7T138,0.569
Q8SDA7,0.569
Q8SD88,0.573
P53877,0.581
P47753,0.652
Q923G3,0.6609999999999999
Q12792,0.672
P68135,0.675
Q8SD91,0.6920000000000001
Q8SD89,0.6920000000000001
Q8SD94,0.6990000000000001
Q969W0,0.733
Q14126,0.769
P68135,0.7709999999999999
O15269,0.775
Q8SD39,0.7829999999999999
A8R7D1,0.818
Q6UXT8,0.84
P19841,0.8490000000000001
P15141,0.865
P15141,0.867
P15141,0.8690000000000001
P19841,0.879
P19841,0.882
P19841,0.883
