Q71014,0.20155
Q71014,0.20155
Q71014,0.20155
Q16J57,0.2993699999999999
A0A6I8TEX2,0.2993699999999999
A0A6I8TEX2,0.2993699999999999
A0A6I8TEX2,0.2993699999999999
A0A1J5IBV5,0.33624
A0A1J5ID92,0.33624
A0A1J5IBV5,0.33624
A0A1J5IBV5,0.33624
A0A1J5ID92,0.33624
Q8I6T1,0.34791
A0A4Z0THX4,0.38083
P06654,0.38083
P99134,0.38083
P0DKX7,0.39957
A5JW88,0.4052199999999999
A0A494C0X7,0.4052199999999999
P11215,0.4052199999999999
A0PGB2,0.4245100000000001
Q23AJ0,0.4245100000000001
D2CVN8,0.4245100000000001
Q6JXI5,0.4245100000000001
D2CVN7,0.4245100000000001
P08195,0.44118
P40969,0.47948
P40969,0.47948
P32504,0.47948
P35203,0.47948
P52286,0.47948
P10824,0.50148
B1H241,0.50148
G2Q5N0,0.52937
G2Q0E2,0.52937
G2Q1C9,0.52937
Q12749,0.55308
Q08204,0.55308
P0DTD1,0.57799
P0DTD1,0.57799
P0DTD1,0.57799
P0DTD1,0.57799
P0DTD1,0.57799
G3IEF0,0.57823
P00347,0.57823
P0ABE7,0.57823
B6ZK67,0.589
B6ZK67,0.589
B6ZK67,0.589
B6ZK67,0.589
B6ZK67,0.589
P01876,0.59946
P01876,0.59946
P01878,0.61736
P01878,0.61736
P01878,0.61736
P01878,0.61736
P0DP92,0.63883
P0DP92,0.63883
P0ADJ3,0.63883
P0ADJ3,0.63883
O14746,0.6659
P02309,0.71032
P61830,0.71032
Q4WXX5,0.71032
P39984,0.71032
Q12341,0.71032
P0ABE7,0.71032
P40348,0.795
P38629,0.795
P40339,0.795
P38251,0.795
P32641,0.795
Q5VTY9,0.7952600000000001
P06104,0.80362
P0CG47,0.80362
P19812,0.80362
P0CG47,0.80362
P28887,0.81248
P03421,0.81248
P03421,0.81248
P03421,0.81248
P03421,0.81248
Q6UXT8,0.8363
P29376,0.8363
P29376,0.8363
Q8NFJ9,0.96105
Q96RK4,0.96105
Q923G3,0.97278
P68135,0.97278
P47753,0.97278
Q12792,0.97278
P68135,0.97278
P53877,0.9744
P53877,0.9744
P38883,0.9744
P38883,0.9744
Q8SDA7,0.9786
Q8SD94,0.9786
Q8SD39,0.9786
L7T138,0.9786
Q8SD89,0.9786
Q8SD91,0.9786
Q8SD88,0.9786
O15269,0.97945
Q969W0,0.97945
Q8N138,0.97945
P15141,0.98413
Q14126,0.98413
P15141,0.98413
P15141,0.98413
P19841,0.9937299999999999
P19841,0.9937299999999999
P19841,0.9937299999999999
P19841,0.9937299999999999
A8R7D1,0.9937299999999999
