A8YJ50	1.3428463501228975
A8YJ50	1.3218082503170872
A8YJ50	1.2496776224114519
Q9L0M9	-1.1877365122331507
Q9L0M9	-0.8391051440225787
Q9L0M9	-1.1817256265743477
Q9L0M9	-1.1877365122331507
Q9L0M9	-0.8391051440225787
Q9L0M9	-1.1937473978919537
P9WIR7	-1.1727092980861433
P66948	-1.1907419550625522
P66948	-1.1907419550625522
P66948	-1.1937473978919537
P66948	-1.1907419550625522
P66948	-1.1907419550625522
P66948	-1.1907419550625522
F9UST1	1.5562327910104026
F9UST1	1.5562327910104026
Q4J9S1	0.5043278007198841
Q4J9S1	-0.1448478504308363
Q4J9S1	-0.2199839211658733
Q4J9S1	-0.1658859502366467
Q4J9S1	0.1857508608033269
Q4J9S1	-0.2500383494598881
A0A3G5BRZ6	1.2887483791936711
A0A3G5BRZ6	1.2917538220230722
A0A1D7Y259	-0.7669745161169431
A0A1D7Y259	-1.0915623416923033
A0A1D7Y259	-0.8601432438283891
A0A1D7Y259	-1.151671198280333
A0A1D7Y259	-1.0885568988629017
A0A1D7Y259	-1.14566031262153
Q05127	-1.133638541303924
Q05127	-0.884186786463601
Q05127	-0.9773555141750468
Q05127	-1.1787201837449461
Q05127	-1.1787201837449461
Q05127	-1.1186113271569165
H9N289	-1.1697038552567418
H9N289	-1.1697038552567418
H9N289	-0.8691595723165936
M5AAG8	0.8709918259068647
M5AAG8	0.8950353685420765
B7J5E4	1.1444871233823999
B7J5E4	1.1655252231882098
B7J5E4	1.1655252231882098
P37840	-1.1366439841333253
P37840	-1.1366439841333253
P37840	-1.1396494269627269
P37840	-1.1426548697921284
P37840	-1.1426548697921284
P37840	-1.1396494269627269
Q53W51	-0.08774443667220809
Q53W51	-0.1298206362838289
Q53W51	-0.4033159337593637
Q53W51	-0.33719619151253105
Q53W51	-0.28610366341270593
Q53W51	-0.3822778339535533
A0A174EHD1	-1.1967528407213552
A0A174EHD1	-1.1967528407213552
O14763	-0.7339146449935269
O14763	-0.5716207322058467
O14763	-0.5656098465470438
O14763	-0.7369200878229283
O14763	-0.9953881711514558
O14763	-0.4243540335651741
A0A5Q2WX04	1.607325319110228
A0A5Q2WX04	1.6103307619396297
A0A5Q2WX04	1.6133362047690312
A0A1B3NHK7	-0.3492179628301371
P0DTF8	1.0633401669885598
P0DTF8	1.0513183956709538
P0DTF8	1.0423020671827494
P0DTF8	1.0753619383061654
P0DTF8	1.0633401669885598
D1CCW1	1.2436667367526488
F0NE21	-0.41533770507696965
F0NE21	-0.4393812477121815
F0NE21	-0.41533770507696965
Q9U6P4	-1.175714740915545
Q9U6P4	-1.1907419550625522
Q9U6P4	-1.1907419550625522
Q9U6P4	-1.1937473978919537
Q9U6P4	-1.1937473978919537
Q9U6P4	-1.1847310694037492
Q7JV70	-1.1546766411097344
Q7JV70	-0.8571378009989876
Q7JV70	-1.1847310694037492
Q7JV70	-1.1847310694037492
Q7JV70	-1.1817256265743477
Q7JV70	-0.8060452728991624
P01189	-1.0434752564218797
P01189	-1.0404698135924781
P01189	-0.8871922292930025
P01189	-1.034458927933675
P01189	-1.0254425994454706
P01189	-0.9683391856868424
Q9H6P5	-0.6948438882113078
Q9H6P5	-0.5085064327884157
Q8TCU6	-1.1697038552567418
P0A8W0	-1.1817256265743477
P0A8W0	-1.1847310694037492
P0A8W0	-0.7279037593347238
P0A8W0	-0.6317295887938764
Q96JP0	-1.1576820839391357
Q96JP0	-1.1817256265743477
Q96JP0	-1.1877365122331507
Q96JP0	-1.127627655645121
Q96JP0	-1.1907419550625522
Q96JP0	-1.1697038552567418
A0A0H3B5N9	-1.0224371566160693
F0TTD6	-1.1697038552567418
F0TTD6	-1.1606875267685373
F0TTD6	-1.1546766411097344
F0TTD6	-1.1636929695979388
F0TTD6	-1.1576820839391357
F0TTD6	-1.1666984124273403
Q65179	-1.14566031262153
Q65179	-1.14566031262153
P09651	-1.1817256265743477
P09651	-1.1817256265743477
P09651	-1.1907419550625522
P09651	-1.1877365122331507
P09651	-1.1847310694037492
P09651	-1.1847310694037492
B2HEF4	-1.133638541303924
B2HEF4	-1.1847310694037492
B2HEF4	-1.121616769986318
B2HEF4	-1.1877365122331507
B2HEF4	-1.14566031262153
B2HEF4	-1.1246222128157195
Q88FY1	1.4179824208579346
Q88FY1	1.4420259634931465
Q88FY1	1.4360150778343432
Q88FY1	1.3759062212463138
Q88FY1	1.3849225497345188
Q88FY1	1.4420259634931465
O74312	-0.8481214725107832
O74312	-1.1787201837449461
O74312	-1.1877365122331507
A0A2Z5XAU0	-0.5265390897648246
A0A2Z5XAU0	-0.878175900804798
A0A2Z5XAU0	-0.7218928736759209
A0A2Z5XAU0	-0.772985401775746
A0A2Z5XAU0	-0.8391051440225787
A0A2Z5XAU0	-0.8932031149518055
P73270	1.6463960758924472
P0ACK5	1.2947592648524742
P0ACK5	1.3067810361700798
P0ACK5	1.2917538220230722
P0ACK5	1.1625197803588088
P0ACK5	1.2436667367526488
P0ACK5	1.1685306660176118
P10109	-1.1967528407213552
P19099	-1.1967528407213552
P10109	-1.1967528407213552
P19099	-1.1967528407213552
P10109	-1.1967528407213552
P19099	-1.1967528407213552
A0A0H2ZNA4	-0.3612397341477429
A0A0H2ZNA4	-1.1065895558393106
A0A0H2ZNA4	-0.4063213765887652
P10636	-1.1787201837449461
P10636	-1.1937473978919537
P10636	-1.1907419550625522
P10636	-1.1907419550625522
P10636	-1.1937473978919537
P10636	-1.1937473978919537
Q9NUM4	-1.1877365122331507
Q9NUM4	-1.1636929695979388
Q9NUM4	-1.1877365122331507
Q9NUM4	-1.1877365122331507
Q9NUM4	-1.1817256265743477
Q9NUM4	-1.175714740915545
Q9HU50	-0.2921145490715089
Q9HU50	-0.29511999190091043
A0A2T5Y4G4	1.0182585245475375
A0A2T5Y4G4	0.8379319547834487
A0A2T5Y4G4	1.0032313104005302
A0A2T5Y4G4	1.0272748530357418
A0A2T5Y4G4	0.9040516970302813
A0A2T5Y4G4	0.9010462542008796
A0A6L9SN29	1.5021348200811762
A0A6L9SN29	1.4810967202753655
A0A6L9SN29	1.4901130487635703
A0A6L9SN29	1.4841021631047673
A0A6L9SN29	1.4780912774459645
A0A6L9SN29	1.4931184915929718
Q9UJ71	-1.103584113009909
Q9UJ71	-1.0705242418864929
Q9UJ71	-0.709871102358315
Q9UJ71	-1.052491584910084
Q9UJ71	-0.23200569248347921
Q9UJ71	-0.2380165781422822
P62314	0.8229047406364413
P62316	1.1174381379177865
P62304	1.3067810361700798
P62306	1.240661293923247
Q9T1V0	1.1955796514822248
Q9T1U9	1.1925742086528237
Q9EPR5	-1.0254425994454706
P01139	-1.028448042274872
P01139	-0.7910180587521549
Q88K57	0.7808285410248201
Q88K58	0.7147087987779878
Q88K58	0.9130680255184859
Q88K58	1.096400038111976
Q88K57	0.9731768821065152
Q88K58	1.021263967376939
P81274	-0.884186786463601
Q14980	-1.1787201837449461
P81274	-1.1937473978919537
Q14980	-1.1877365122331507
P81274	-0.6677949027466942
Q14980	-1.1847310694037492
Q8ZRY4	1.1775469945058161
Q03032	1.1715361088470129
Q8ZRY4	1.1745415516764146
Q03032	1.3037755933406785
Q03032	1.3218082503170872
Q8ZRY4	1.3218082503170872
P71650	0.06853859045666914
P71650	0.32099578812639357
P71650	-0.01561380876657261
P0CL61	0.062527704797866
P71650	-0.0667063368663977
P0CL61	-0.22900024965407773
A7NJ87	1.0302802958651434
A7NJ88	0.9311006824948944
A7NJ89	0.8920299257126751
A7NJ90	1.0483129528415522
A7NJ91	0.9070571398596825
A7NJ92	0.9701714392771137
P39523	-0.953311971539835
P32873	-0.9052248862694114
P39523	-0.8030398300697609
P39523	-0.8691595723165936
P39523	-0.890197672122404
P32873	-0.7820017302639505
Q8TEV9	-1.1937473978919537
Q8TEV9	-1.1787201837449461
Q9HAD4	-1.1847310694037492
Q96LT7	-0.8721650151459951
Q96LT7	-0.9503065287104339
Q9HAD4	-1.175714740915545
Q695T7	-0.41533770507696965
Q9BYF1	-0.8721650151459951
Q9BYF1	-0.8721650151459951
Q695T7	-0.8000343872403595
Q9BYF1	-0.8992140006106084
Q9BYF1	-0.8992140006106084
P0DTC2	-1.1937473978919537
P0DTC2	-1.1967528407213552
Q68DU8	0.777823098195419
Q68DU8	0.5764584286255194
Q68DU8	0.6816489276545714
Q68DU8	-0.4393812477121815
Q68DU8	-0.07572266535460215
Q68DU8	-1.0404698135924781
P03697	1.2346504082644445
P03697	1.252683065240853
P03697	1.1805524373352174
P03698	1.126454466405991
P03698	1.2316449654350425
P03698	1.3127919218288826
B6YWB8	0.324001230955795
B6YWB9	0.22782706041494752
B6YWC0	0.4382080584730515
B6YWC0	0.4592461582788619
B6YWC1	0.3540556592498099
B6YWC2	0.2789195885147728
P06828	0.8950353685420765
P06828	0.8950353685420765
P25694	-1.06451335622769
P25694	-0.9412902002222291
P25694	-0.9713446285162439
P25694	-1.1967528407213552
P49051	-1.1907419550625522
P49051	-1.1636929695979388
P53010	-1.1877365122331507
P04147	-1.1967528407213552
P04147	-0.8451160296813817
A0A3W2RZ19	-1.0615079133982885
A0A3W2RZ19	-1.0705242418864929
A0A3W2RZ19	-1.0945677845217046
A0A377LA80	-1.1907419550625522
A0A377LA80	-1.1937473978919537
A0A377LA80	-1.1967528407213552
O43681	-0.5055009899590142
O43681	-0.616702374646869
O00258	-0.5956642748410585
O00258	-0.5626044037176423
P49069	-1.1005786701805076
P49069	-1.0885568988629017
P22629	1.5141565913987822
P22629	1.4029552067109272
P22629	1.4029552067109272
P22629	1.4540477348107526
A0Q7H0	-1.1847310694037492
A0Q7H0	-1.1907419550625522
A0Q7H3	-1.1907419550625522
A0Q7H3	-0.37326150546534903
A0Q7H3	-0.35522884848893993
A0Q7H0	-0.3642451769771446
B1H241	-1.1095949986687121
P10824	-1.115605884327515
Q88434	-1.1937473978919537
P11208	-1.1937473978919537
P11208	-1.1967528407213552
P11208	-1.1967528407213552
P11208	-1.1937473978919537
P11208	-1.1967528407213552
Q9H4B8	-0.6828221168937015
Q9H4B8	-0.6768112312348986
Q9UH99	0.48930058657287673
Q8N205	0.4983169150610809
P02786	-1.1877365122331507
P02786	-0.9803609570044484
P02786	-1.1937473978919537
Q9V6Q2	0.8469482832716532
P84040	0.92208435400669
Q9V6Q2	0.8920299257126751
P84040	0.8168938549776383
Q9VEN2	0.6485890565311552
Q9VEN2	0.6485890565311552
P03437	-0.9322738717340247
P03437	-0.947301085881032
P03437	-0.9232575432458203
P03437	-0.3822778339535533
P03437	-0.35222340565953847
P03437	-0.37326150546534903
P11836	-0.5325499754236275
P11836	-0.529544532594226
P0DP92	0.6545999421899581
P0DP92	0.6335618423841477
P0ADJ3	-0.19594037853066157
P0ADJ3	-0.045668237060587466
P37657	1.0483129528415522
P37657	1.0332857386945449
Q8IDR3	-1.1907419550625522
A0A2I0BQX1	-1.1937473978919537
W7K1J7	-1.1967528407213552
Q8IDR3	-1.1937473978919537
Q8MUJ1	1.2166177512880352
B7UL98	1.2767266078760648
B7UL97	1.2556885080702544
B7UL96	0.6155291854077388
B7UL98	0.47126792959646785
B7UL97	0.4742733724258693
B7UL96	0.3450393307616054
P15141	1.2767266078760648
P15141	1.2797320507054666
P15141	1.3097864789994815
Q14126	0.6756380419957685
Q14126	0.6756380419957685
Q14126	0.6305563995547462
Q8ZKC6	0.1947671892915312
Q8ZKC6	0.22482161758554603
Q8ZKC7	0.24886516022075808
Q8ZKC7	0.230832503244349
Q8ZKC7	0.42618628715544554
Q8ZKC7	0.42017540149664223
Q98TU0	-1.1907419550625522
A8E7C6	-1.1937473978919537
Q98TU0	-0.7609636304581401
Q98TT9	-0.772985401775746
A8E7C6	-0.5565935180588394
Q98TT9	-0.5656098465470438
O75031	-0.40031049092996224
O75031	-0.43637580488278005
O75031	-0.13583152194263184
O75031	-0.11178797930741997
P51587	-0.42134859073577263
P51587	-0.4243540335651741
A0A221C8X2	0.5584257716491106
A0A221C8X5	-0.012608365937171125
A0A221C8X0	0.48629514374347527
A0A221C8X1	1.1925742086528237
A0A221C8X7	0.7928503123424264
O67937	0.6816489276545714
G5DGC8	0.6816489276545714
G0LWX8	1.3488572357817006
O67937	1.351862678611102
G5DGC8	1.2015905371410278
G0LWX8	1.2015905371410278
A0A7S4XLZ3	0.7597904412190097
A0A7S4XLZ3	0.7808285410248201
A0A7S4XLZ3	0.7627958840484116
Q9F0J8	0.4442189441318545
Q9F0J8	0.28192503134417457
Q9F0J8	0.468262486767066
Q8VIG3	-0.11178797930741997
Q8BYM7	-0.10878253647801832
Q9D9V4	0.5403931146727017
P24941	-1.1366439841333253
Q5MJ70	0.49230602940227824
O94901	-1.1186113271569165
P53969	-0.06069545120759489
P14693	0.42919172998484706
P50110	-0.4694356760061964
P23644	-0.6677949027466942
P80967	-0.3341907486831297
P33448	0.26389237436776536
A0A069QEY1	-0.01561380876657261
A0A069QEY1	-0.23200569248347921
A0A072ZHB4	1.096400038111976
A0A072ZHB4	0.6425781708723521
A0A072ZHB4	0.5914856427725269
A0A072ZHB4	0.46225160110826335
P12004	-0.08774443667220809
Q99P21	-0.1298206362838289
P73953	1.126454466405991
P73953	1.126454466405991
P73954	1.1234490235765895
P73954	0.7988611980012293
P73953	0.8138884121482368
P73954	0.804872083660032
P0DTC2	1.7215321466274844
P0DTC2	1.7215321466274844
Q5T848	-0.8330942583637757
Q5T848	-0.6828221168937015
O14775	-0.5445717467412334
P49802	-0.5896533891822557
P49802	-1.1907419550625522
O14775	-1.1907419550625522
B2HEF4	-1.1666984124273403
B2HEF4	-1.1847310694037492
B2HEF4	-1.1907419550625522
B2HEF4	-1.1937473978919537
B2HEF4	-1.1877365122331507
B2HEF4	-1.1877365122331507
P0DTC2	-0.6738057884054972
P0DTC2	-0.4844628901532038
O15269	1.3939388782227229
O15270	1.3939388782227229
Q969W0	1.363884449928708
O15269	1.3668898927581095
O15270	1.219623194117437
Q969W0	1.240661293923247
A0A1J5IBV5	-1.1967528407213552
A0A1J5ID92	-1.1967528407213552
A0A1J5ID92	-1.1907419550625522
A0A1J5IBV5	-1.1877365122331507
A0A1J5IBV5	-1.1937473978919537
A0A1J5IBV5	-1.1937473978919537
C0H5N9	-0.9803609570044484
C0H5N9	-0.8330942583637757
Q9UNG2	0.7748176553660172
Q9UNG2	0.783833983854222
Q74H36	-0.11178797930741997
Q74H36	-0.1478532932602378
Q74H36	-0.19894582136006286
Q74H36	-0.15987506457784373
Q74H35	0.8379319547834487
Q74H35	0.8078775264894339
P01024	-0.5986697176704602
P01024	-0.7579581876287387
P27918	-1.1967528407213552
P27918	-1.1907419550625522
P00751	-1.1967528407213552
Q8SD94	-1.1967528407213552
Q8SD91	0.09859301875068383
I7DB36	0.09859301875068383
Q8SD88	0.9882040962535226
Q8SD39	0.5974965284313298
Q8SDA7	0.6455836137017537
L7T138	0.6455836137017537
O50330	-0.8481214725107832
O50330	-0.9653337428574409
O50335	-1.1907419550625522
O50329	-1.1937473978919537
O50335	-1.1877365122331507
O50335	-1.1967528407213552
Q99714	1.5472164625221982
Q99714	1.6133362047690312
Q99714	1.4420259634931465
Q99714	1.5562327910104026
O15091	0.6155291854077388
Q7L0Y3	0.7447632270720023
P26459	1.475085834616563
P26458	1.4720803917871614
P24244	1.4540477348107526
P26459	1.457053177640154
P26458	1.5592382338398045
P24244	1.5562327910104026
P14867	-0.7459364163111327
P28472	-0.772985401775746
P14867	-1.1697038552567418
P18507	-1.1907419550625522
P18507	-1.1907419550625522
P28472	-1.1967528407213552
O35714	-1.1817256265743477
A0A7G8ZY66	-1.1817256265743477
O35714	-1.1787201837449461
A0A7G8ZY66	-1.1787201837449461
P42285	-0.8721650151459951
Q6NZY4	-1.0013990568102589
P42285	-1.1907419550625522
Q9Y580	-1.1907419550625522
Q6NZY4	-1.1937473978919537
P25106	-0.9352793145634263
P48061	-0.7369200878229283
P22001	-0.5235336469354231
P42212	-0.5235336469354231
P22001	-0.4904737758120068
P42212	-0.4904737758120068
P22001	-0.5024955471296126
P42212	-0.5024955471296126
P22001	-0.49949010430021124
P42212	-0.49949010430021124
P93002	-0.49347921864140826
P93002	-0.4904737758120068
Q39234	-1.1937473978919537
Q39234	-1.1937473978919537
Q39234	-1.1907419550625522
Q39234	-1.1937473978919537
Q2FVF7	0.32099578812639357
Q2FVF7	0.09258213309188086
Q2FVF7	0.161707318168115
Q2FVF7	-0.7068656595289134
Q2FVF8	0.4051481873496348
Q2FVF8	-1.115605884327515
P0DTC5	-0.772985401775746
P0DTC5	-0.8150616013873668
S5LAD9	0.08056036177427492
A0A1E8EBU8	0.07154403328607063
S5LAD9	0.08657124743307822
A0A1E8EBU8	-0.06069545120759489
Q5ZTB4	-1.1877365122331507
J3QS39	-1.1907419550625522
J3QS39	-1.1877365122331507
Q5ZTB4	-1.1606875267685373
J3QS39	-1.1907419550625522
J3QS39	-1.1907419550625522
P11912	-0.8210724870461699
P40259	-0.7188874308465194
P01871-2	-0.3582342913183416
