Q14204	-0.04266279423118581
Q14204	-0.33719619151253105
Q14204	-0.3311853058537281
Q14204	-0.027635580084178386
Q93008	-1.151671198280333
Q93008	-1.1576820839391357
Q93008	-1.1486657554509314
Q93008	-1.1426548697921284
Q9X1H2	-1.175714740915545
Q9X1H2	-1.175714740915545
Q9X1H2	-1.175714740915545
Q9X1H2	-1.175714740915545
C8VJQ3	-0.6768112312348986
C8VJQ3	-0.6768112312348986
Q58T34	-0.5595989608882409
Q58T34	-0.5415663039118319
Q58T34	-0.5505826324000364
Q58T34	-0.5595989608882409
Q9RXY9	1.351862678611102
Q9RXY9	1.3879279925639199
Q9RXY9	1.4149769780285335
Q9RXY9	1.3759062212463138
Q2T7K1	-0.9833663998338499
Q2T7K1	-0.9803609570044484
Q2T7K1	-0.9623283000280395
Q2T7K1	-1.0074099424690617
Q9BRV8	0.7627958840484116
Q9BRV8	0.7597904412190097
A0A1P8QPB5	0.552414885990308
A0A1P8QPB5	0.48930058657287673
A0A1P8QPB5	0.8409373976128498
A0A1P8QPB5	0.5313767861844972
E9DVV4	-0.953311971539835
E9DVV4	-0.9953881711514558
E9DVV4	-1.0314534851042736
E9DVV4	-0.959322857198638
A1B2F4	-1.0404698135924781
A1B2F4	-1.0194317137866677
A1B2F4	-1.1697038552567418
A1B2F4	-1.1817256265743477
O06581	1.0933945952825745
O06581	1.0933945952825745
O15554	1.5592382338398045
O15554	1.5472164625221982
A0A174CQK8	1.015253081718136
A0A174CQK8	1.0182585245475375
A0A174CQK8	1.0182585245475375
A0A174CQK8	1.021263967376939
W2SDE2	-0.23200569248347921
W2SDE2	-0.3762669482947503
W2SDE2	-0.3311853058537281
W2SDE2	-0.23200569248347921
A7AG62	-1.1967528407213552
A7AG62	-1.1967528407213552
A7AG62	-1.1967528407213552
A7AG62	-1.1967528407213552
Q15431	-0.6407459172820809
Q15431	-0.6888330025525049
Q15431	-0.628724145964475
Q15431	-1.0915623416923033
A0A140EEF9	-1.1817256265743477
A0A140EEF9	-1.1817256265743477
A0A140EEF9	-1.1727092980861433
A0A140EEF9	-1.175714740915545
P17931	-1.1727092980861433
P17931	-1.1727092980861433
P17931	-1.1727092980861433
P17931	-1.1727092980861433
H7CRF0	-0.4063213765887652
H7CRF0	-0.5626044037176423
Q63NA5	-0.6708003455760957
Q63NA5	-0.25905467794809256
Q63NA5	-0.37927239112415184
Q63NA5	-0.628724145964475
Q6ZWB6	-1.103584113009909
Q6ZWB6	-1.046480699251281
Q6ZWB6	-1.0915623416923033
Q6ZWB6	-1.058502470568887
Q8JPY0	0.6876598133133744
Q8JPY0	0.7177142416073893
Q8JPY0	0.9010462542008796
Q8JPY0	0.8349265119540469
Q8DR57	-0.7609636304581401
Q8DR57	-0.7309092021641254
Q8DR57	-0.7639690732875416
Q8DR57	-0.797028944410958
P0ADP7	-1.0945677845217046
P0ADP7	-1.1396494269627269
P0ADP7	-1.127627655645121
P0ADP7	-1.1486657554509314
Q9UHP3	-0.9202521004164188
Q9UHP3	-0.9232575432458203
P72321	-0.14184240760143466
P72321	0.06553314762726749
P72321	-0.021624694425375415
P72321	0.13766377553290313
Q9BXU0	-0.8000343872403595
Q9BXU0	-0.8180670442167683
Q9BXU0	-1.0224371566160693
Q9BXU0	-1.0374643707630766
A0A2T6C3M6	-0.3191635345361223
A0A2T6C3M6	-0.28610366341270593
A0A2T6C3M6	-0.3221689773655236
A0A2T6C3M6	-0.28610366341270593
A0A1H7TQR5	-1.1817256265743477
A0A1H7TQR5	-1.1847310694037492
A0A1H7TQR5	-1.1787201837449461
A0A1H7TQR5	-1.1847310694037492
P53396	1.2316449654350425
P53396	1.324813693146489
Q08CF3	-0.1508587360896393
Q08CF3	-0.25304379228928964
Q5SLP8	-1.1546766411097344
Q5SLP8	-1.151671198280333
Q5SLP8	-1.1426548697921284
Q5SLP8	-1.1306330984745225
P81877	0.07755491894487343
P81877	0.24886516022075808
B8NJH3	0.26088693153836384
B8NJH3	0.266897817197167
B8NJH3	-0.4453921333709845
B8NJH3	0.230832503244349
Q7WSM9	-0.9052248862694114
Q7WSM9	-0.896208557781207
Q7WSM9	-0.8751704579753965
Q7WSM9	-0.8391051440225787
A0A1S6PUA4	1.357873564269905
A0A1S6PUA4	1.1565088947000055
A0A1S6PUA4	1.207601422799831
A0A1S6PUA4	1.318802807487686
P02545	-0.1658859502366467
P02545	-0.12380975062502575
P02545	-0.3221689773655236
P02545	-0.20195126418946435
X5IFG3	-1.121616769986318
X5IFG3	-1.1366439841333253
X5IFG3	-1.1126004414981137
X5IFG3	-1.1396494269627269
B8H4R9	-0.051679122719390264
B8H4R9	-0.30714176321851616
B8H4R9	-0.03965735140178433
B8H4R9	-0.3191635345361223
Q9LMN2	1.2166177512880352
Q9LMN2	1.2346504082644445
Q9LMN2	1.207601422799831
Q9LMN2	1.2256340797762397
Q9H9S5	-0.6918384453819061
Q9H9S5	-0.6948438882113078
Q9H9S5	-0.7158819880171179
Q9H9S5	-0.7248983165053223
A0A0U1X4V6	-1.1697038552567418
A0A0U1X4V6	-1.1546766411097344
A0A0U1X4V6	-0.3822778339535533
A0A0U1X4V6	-0.47845200449440084
Q62640	-1.1907419550625522
Q62640	-1.1877365122331507
Q62640	-1.1847310694037492
Q62640	-1.1937473978919537
Q6MQ71	1.3759062212463138
S5MRN1	1.6524069615512502
C4M4U3	-0.40031049092996224
C4M4U3	0.3510502164204084
C4M4U3	-0.3672506198065459
C4M4U3	0.29094135983237873
P9WMU1	-0.43637580488278005
P9WMU1	-0.4183431479063711
J8G6Z1	-0.9022194434400099
J8G6Z1	-0.7850071730933523
J8G6Z1	-0.8120561585579653
J8G6Z1	-0.8661541294871921
E2GIN1	1.3097864789994815
E2GIN1	0.9972204247417271
E2GIN1	0.9791877677653185
E2GIN1	1.102410923770779
Q8YMD9	0.08657124743307822
Q8YMD9	0.11963111855649405
Q63226	-1.1877365122331507
Q63226	-1.1907419550625522
Q63226	-1.1877365122331507
Q63226	-1.1907419550625522
A0A425B3G2	-0.49347921864140826
A0A425B3G2	-0.3612397341477429
Q9WUU8	-0.03665190857238284
Q9WUU8	-0.1448478504308363
Q9WUU8	-0.1448478504308363
Q9WUU8	-0.03364646574298136
A0A332QZQ2	0.3811046447144233
A0A332QZQ2	0.42618628715544554
A0A332QZQ2	0.3390284451028025
A0A332QZQ2	0.36307198773801436
A3NFC3	-1.0194317137866677
A3NFC3	-1.0224371566160693
Q65NA4	-1.082546013204099
Q65NA4	-1.0013990568102589
B0STJ8	-1.1666984124273403
A0A422MHI3	1.1204435807471875
A0A422MHI3	1.1234490235765895
A0A422MHI3	1.1054163666001802
A0A422MHI3	1.102410923770779
Q1WK45	-1.1967528407213552
Q1WK45	-1.1967528407213552
Q1WK45	-1.1967528407213552
Q1WK45	-1.1967528407213552
Q5H8A6	0.15870187533871352
Q9VV73	-1.1095949986687121
Q9W2H9	-1.1095949986687121
Q9VV73	-1.115605884327515
Q9W2H9	-1.115605884327515
Q9VV73	-1.115605884327515
Q9W2H9	-1.115605884327515
A0A0F8IEL4	-0.49347921864140826
A0A0F8IEL4	-0.45440846185918893
A0A0F8IEL4	-0.47845200449440084
A0A0F8IEL4	-0.4844628901532038
Q9A385	0.8860190400538721
P35610	-0.5325499754236275
P35610	-0.5265390897648246
P35610	-0.3311853058537281
P35610	-0.34320707717133414
Q5JTJ3	-1.034458927933675
Q5JTJ3	-1.0945677845217046
Q5JTJ3	-1.046480699251281
Q5JTJ3	-1.0194317137866677
Q7Z6Z7	0.09558757592128234
Q7Z6Z7	-0.01561380876657261
P13304	-1.1095949986687121
Q11HA4	0.22482161758554603
Q11HA4	0.5253659005256942
Q11HA4	0.29094135983237873
Q11HA4	0.4532352726200586
P40959	-0.49648466147080966
P40959	-0.49648466147080966
P40959	-0.49648466147080966
P40959	-0.49347921864140826
Q9S5W7	-0.3612397341477429
Q9S5W7	-0.45140301902978747
Q9S5W7	-0.448397576200386
Q9S5W7	-0.37326150546534903
A0KLE2	0.6155291854077388
B2J0I0	0.6395727280429506
B2J0I0	0.6215400710665417
B2J0I0	0.6395727280429506
B2J0I0	0.6245455138959433
P21926	-0.28910910624210745
P21926	-0.45741390468859033
P21926	-0.4844628901532038
P21926	-0.25304379228928964
G3FFN6	-0.3492179628301371
G3FFN6	-0.17189683589544952
A0A144A134	-0.21096759267766899
A0A144A134	-0.1658859502366467
A0A144A134	0.10760934723888828
A0A144A134	0.050505933480260064
Q5ZSQ2	-1.0314534851042736
Q5ZSQ2	-1.133638541303924
Q5ZSQ2	-1.034458927933675
Q5ZSQ2	-1.133638541303924
Q1D489	-0.0667063368663977
Q1D489	-0.17790772155425263
Q1D489	-0.17790772155425263
Q5HYM0	-0.5385608610824305
Q5HYM0	-0.3311853058537281
Q8GGD4	-0.1658859502366467
Q8GGD4	-0.17189683589544952
Q8GGD4	-0.1538641789190406
Q8GGD4	-0.18091316438365412
E9RIY6	-0.9202521004164188
E9RIY6	-0.8932031149518055
Q8CVD0	-1.1606875267685373
Q58XI2	-0.8932031149518055
Q58XI2	-0.8992140006106084
Q58XI2	-0.8541323581695861
Q58XI2	-0.8601432438283891
Q8I2Q0	-0.7339146449935269
Q8I2Q0	-0.7429309734817313
Q8I2Q0	-0.7339146449935269
Q8I2Q0	-0.7429309734817313
Q7VLF5	1.0362911815239464
Q7VLF5	1.0663456098179613
Q7VLF5	1.1234490235765895
Q7VLF5	1.102410923770779
P11208	1.1204435807471875
P11208	1.1474925662118014
P21678	0.40815363017903666
P21678	0.5013223578904823
P21678	0.7327414557543968
P21678	0.34203388793220396
Q0P8I7	0.9431224538125007
Q0P8I7	0.9190789111772888
Q0P8I7	0.8138884121482368
Q0P8I7	0.8229047406364413
Q8SS09	-1.1636929695979388
Q8SS09	-1.082546013204099
P0AEW6	-0.8932031149518055
P0AEW6	-0.8811813436341995
P0AEW6	-0.896208557781207
P0AEW6	-0.8691595723165936
P50405	-1.0795405703746974
P50405	-1.0795405703746974
P50405	-1.0855514560335002
P50405	-1.0855514560335002
P07278	1.4360150778343432
P07278	1.5141565913987822
P07278	1.5171620342281837
P07278	1.5502219053516
Q4D6Q6	1.1595143375294072
Q4D6Q6	1.1865633229940202
Q4D6Q6	1.3127919218288826
Q4D6Q6	1.2737211650466638
P03421	0.23684338890315215
P03421	0.230832503244349
P03421	0.23984883173255347
P03421	0.23383794607375066
A9CQL4	-0.5085064327884157
A9CQL4	-0.3161580917067208
A9CQL4	-0.3612397341477429
A9CQL4	-0.535555418253029
Q9E006	1.475085834616563
Q9E006	1.5201674770575853
Q9E006	1.5081457057399792
Q9E006	1.4660695061283582
O68216	-0.8571378009989876
O68216	-0.8210724870461699
A9CJ36	1.0332857386945449
A9CJ36	0.9341061253242963
A9CJ36	1.0693510526473626
A9CJ36	0.9461278966419018
Q9HVU1	-1.1817256265743477
Q9HVU1	-1.1787201837449461
Q9HVU1	-1.1666984124273403
Q9HVU1	-1.1847310694037492
A0A378K488	1.1504980090412025
A0A378K488	1.1565088947000055
A0A378K488	1.1595143375294072
A0A378K488	1.1535034518706042
Q9Y210	0.005424291039237953
Q9Y210	0.04449504782145709
Q9Y210	-0.027635580084178386
Q9Y210	0.011435176698040924
Q81FS4	1.574265447986812
Q81FS4	1.5622436766692056
Q81FS4	1.5081457057399792
Q81FS4	1.4901130487635703
Q9I3A0	0.9701714392771137
Q9I3A0	0.9250897968360914
Q9I3A0	1.0603347241591579
Q9I3A0	1.0783673811355672
Q8I224	-0.5205282041060215
Q8I224	-0.5024955471296126
Q8I224	-0.38828871961235645
Q8I224	-0.38828871961235645
Q09808	-0.027635580084178386
Q09808	0.29094135983237873
A0A2U8UYM6	1.420987863687336
A0A2U8UYM6	1.4119715351991318
A0A2U8UYM6	1.4360150778343432
A0A2U8UYM6	1.4300041921755409
Q8YT18	1.6403851902336446
Q8YT18	1.6223525332572353
Q74P26	0.804872083660032
Q74P26	0.8259101834658424
Q74P26	0.910062582689084
Q74P26	0.8679863830774636
F5SWR8	-0.9983936139808572
F5SWR8	-0.9983936139808572
F5SWR8	-1.0134208281278647
F5SWR8	-1.0013990568102589
A0A0L6JMH4	-0.7940235015815564
A0A0L6JMH4	-0.7880126159227535
A0A0L6JMH4	-0.8481214725107832
A0A0L6JMH4	-0.878175900804798
Q4WQ18	1.5472164625221982
Q4WQ18	1.5321892483751909
Q4WQ18	1.544211019692797
Q4WQ18	1.5261783627163878
Q9BUN8	0.2578814887089624
Q9BUN8	0.32700667378519654
Q9BUN8	0.3089740168087876
Q9BUN8	0.24585971739135642
O75334	0.21881073192674325
O75334	0.05351137630966172
O75334	0.11963111855649405
O75334	0.13766377553290313
O75334	1.1354707948941951
O75334	1.0994054809413776
O75334	1.0873837096237717
O75334	1.2256340797762397
A0A2Z6FZW5	1.6313688617454398
A0A2Z6FZW5	1.655412404380652
A0A2Z6FZW5	1.6463960758924472
A0A2Z6FZW5	1.6403851902336446
P02545	-0.39429960527115926
P02545	-0.39429960527115926
A0A2Z4G9P0	-0.13583152194263184
A0A2Z4G9P0	-0.448397576200386
A0A2Z4G9P0	-1.1697038552567418
A0A2Z4G9P0	-0.35222340565953847
Q57W63	0.8469482832716532
Q57W63	0.910062582689084
Q57W63	1.0603347241591579
Q57W63	0.9821932105947196
Q57W63	0.8950353685420765
Q57W63	0.8259101834658424
Q385X1	-0.7609636304581401
Q385X1	-0.7609636304581401
Q385X1	-0.41533770507696965
Q385X1	-0.4033159337593637
Q57FR6	0.39913730169083217
Q57FR6	0.39913730169083217
A0A100JVX1	-1.1697038552567418
A0A100JVX1	-1.1697038552567418
A0A100JVX1	-1.1727092980861433
A0A100JVX1	-1.1727092980861433
A0A6I8WFL9	-0.8000343872403595
A0A6I8WFL9	-0.8120561585579653
A0A6I8WFL9	-0.8060452728991624
A0A6I8WFL9	-0.8000343872403595
Q981B2	1.4029552067109272
Q981B2	1.4179824208579346
Q981B2	1.4600586204695554
Q981B2	1.4660695061283582
P09758	-0.7519473019699356
P09758	-0.03665190857238284
P09758	-0.6798166740643001
P09758	-0.174902278724851
Q8X0D9	0.9521387823007048
Q8X0D9	0.6305563995547462
Q8X0D9	0.6155291854077388
Q8X0D9	0.9401170109830989
P77245	1.3218082503170872
Q9VNW6	0.7958557551718276
Q9VNW6	0.810882969318835
Q9VNW6	0.7898448695130246
Q9VNW6	0.8018666408306309
A0A5B9TEE9	-0.9412902002222291
A0A5B9TEE9	-0.9322738717340247
Q8GXJ4	-1.0164262709572662
Q8GXJ4	-1.0134208281278647
Q8GXJ4	-1.0314534851042736
Q8GXJ4	-1.0374643707630766
Q831Y8	1.1895687658234222
Q831Y8	1.219623194117437
P49792	-1.0374643707630766
P49792	-1.0615079133982885
P49792	-1.052491584910084
P49792	-1.046480699251281
A0A0H2ZNA4	0.48930058657287673
A0A2Z5PF12	1.4330096350049422
A0A2Z5PF12	1.4720803917871614
A0A2Z5PF12	1.4360150778343432
A0A2Z5PF12	1.4600586204695554
E9RJ22	1.1204435807471875
E9RJ22	1.1294599092353925
A0A7U3TBV3	1.1354707948941951
A0A7U3TBV3	1.1865633229940202
A0A7U3TBV3	1.0813728239649687
A0A7U3TBV3	1.0783673811355672
Q9NWC5	1.102410923770779
Q9NWC5	1.0813728239649687
Q9NWC5	1.102410923770779
Q9NWC5	1.0843782667943702
K0JNC6	-0.6497622457702853
K0JNC6	-0.6617840170878911
K0JNC6	-0.6587785742584897
K0JNC6	-0.6918384453819061
O69980	-0.1448478504308363
O69980	-0.1478532932602378
O69980	-0.01861925159597393
O69980	-0.03364646574298136
Q9KL64	-1.175714740915545
Q9KL64	-1.1787201837449461
Q9KL64	-1.175714740915545
Q9KL64	-1.1817256265743477
Q95RQ8	1.1925742086528237
Q95RQ8	1.1294599092353925
Q95RQ8	1.207601422799831
Q95RQ8	1.2376558510938458
Q13148	-1.1907419550625522
Q13148	-1.1937473978919537
Q13148	-1.1907419550625522
Q13148	-1.1937473978919537
A0A0M2HE71	-0.448397576200386
A0A0M2HE71	-0.09976620798981403
A0A0M2HE71	-0.0787281081840033
A0A0M2HE71	-0.5085064327884157
P21256	-1.1907419550625522
Q86WV6	-0.5926588320116571
Q86WV6	-0.5896533891822557
Q86WV6	-0.5205282041060215
Q86WV6	-0.5175227612766201
O94979	-1.1426548697921284
O94979	-1.1606875267685373
O94979	-1.1576820839391357
O94979	-1.1576820839391357
Q57CD7	-0.3281798630243267
Q57CD7	-0.30113087755971335
Q57CD7	-0.3281798630243267
Q57CD7	-0.28910910624210745
A9DF82	-0.6768112312348986
A9DF82	-0.6828221168937015
A9DF82	-0.6918384453819061
A9DF82	-0.6708003455760957
Q9NZV8	0.92208435400669
Q9NZV8	0.9341061253242963
Q9NZV8	0.9311006824948944
Q9NZV8	0.92208435400669
P83111	1.2556885080702544
P83111	1.2827374935348679
P83111	1.2767266078760648
P83111	1.3488572357817006
C4NCJ7	-0.3973050481005607
C4NCJ7	0.2759141456853713
B9EGQ8	-1.0945677845217046
Q15532	-1.0945677845217046
B9EGQ8	-1.076535127545296
Q15532	-1.076535127545296
B9EGQ8	-1.1126004414981137
Q15532	-1.1126004414981137
B9EGQ8	-1.115605884327515
Q15532	-1.115605884327515
A0A6J4AG16	-0.5595989608882409
A0A6J4AG16	-0.5716207322058467
A0A6J4AG16	-0.19894582136006286
A0A6J4AG16	-0.48145744732380225
A0A2S6F197	-1.058502470568887
A0A2S6F197	-1.14566031262153
A0A2S6F197	-1.034458927933675
A0A2S6F197	-1.14566031262153
A8P1J0	-1.1847310694037492
A8P1J0	-1.1847310694037492
Q4R0L3	-0.5716207322058467
Q4R0L3	-0.5626044037176423
Q4R0L3	-0.5626044037176423
Q4R0L3	-0.5686152893764453
P36771	1.1985850943116265
P36771	1.2767266078760648
P36771	1.2977647076818752
P36771	1.1715361088470129
A0A077EHW1	-0.8421105868519803
A0A077EHW1	-0.5024955471296126
A0A077EHW1	-0.8150616013873668
A0A077EHW1	-0.3672506198065459
P80428	0.4321971728142485
P80428	-0.5836425035234527
P60010	-0.7759908446051476
P60010	-0.12681519345442724
P26039	1.2797320507054666
P26039	1.1925742086528237
P26039	1.6343743045748416
P26039	1.2827374935348679
A0A0H3PJL7	-0.8270833727049728
A0A0H3PJL7	-0.8330942583637757
A0A0H3PJK4	-1.0194317137866677
A0A0H3PJK4	-0.9983936139808572
Q0PF16	-0.4093268194181667
Q0PF16	-0.4093268194181667
Q9GZQ8	-1.1877365122331507
Q9GZQ8	-1.1877365122331507
Q7JXA8	0.6485890565311552
Q7JXA8	0.8229047406364413
Q9VIF5	0.8018666408306309
Q9VIF5	0.522360457696293
A0A0H2URC7	1.0843782667943702
A0A0H2URA5	0.008429733868639438
A0A0H2URA5	0.324001230955795
A0A0H2URC7	0.8679863830774636
G0SFF7	-0.6918384453819061
G0SFF7	0.5193550148668916
G2R3T1	-1.1787201837449461
G2R207	0.47126792959646785
Q13137	-0.2981254347303119
Q13137	-0.3311853058537281
Q9H6S1	0.30596857397938615
Q9H6S1	0.38411008754382475
P62137	-0.5595989608882409
P62137	0.67864348482517
P62137	-0.5535880752294379
P62137	0.67864348482517
P40939	0.9791877677653185
P55084	0.9821932105947196
P40939	0.9551442251301063
P55084	0.9521387823007048
A0A0H2UQ08	0.6545999421899581
A0A0H2UQ20	0.6966761418015789
A0A0H2UQ08	0.8559646117598573
A0A0H2UQ20	0.8078775264894339
Q9BRV8	-1.1967528407213552
Q14BN4	-1.1967528407213552
Q99PJ1	-1.1005786701805076
Q99PJ1	-1.115605884327515
Q4KL25	-1.1005786701805076
Q4KL25	-1.1186113271569165
Q9V727	-0.5024955471296126
Q7K5N4	0.04449504782145709
Q9V727	-0.4634247903473934
Q7K5N4	0.09859301875068383
Q96MT8	0.29695224549118204
O94986	0.3330175594439995
Q96MT8	0.4532352726200586
O94986	0.7177142416073893
Q4GYA9	1.3398409072934965
Q38BP3	1.3488572357817006
Q4GYA9	1.2797320507054666
Q38BP3	1.2797320507054666
P04264	1.0633401669885598
P13645	1.0633401669885598
Q16082	-1.1186113271569165
Q16082	-1.133638541303924
Q16082	-1.0675187990570913
M1EAS5	-1.1877365122331507
M1EAS5	-0.32517442019492526
M1EAS5	-0.28009277775390296
M1EBB2	-0.30714176321851616
D4GYL4	1.114432695088385
D4GYL4	1.0182585245475375
D4GW82	1.4149769780285335
D4GW82	1.0513183956709538
P40969	-0.7669745161169431
P40969	-0.448397576200386
P52286	-0.8180670442167683
P35203	-0.8811813436341995
P19474	0.9972204247417271
P19474	0.9972204247417271
P19474	0.8078775264894339
P19474	0.7658013268778131
O14618	-0.8721650151459951
O14618	-0.2500383494598881
P00441	-0.22900024965407773
P00441	-0.8811813436341995
A0A0D1DWQ2	1.1324653520647938
A0A0D1DWQ2	0.8349265119540469
A0A1D6GNR3	0.9280952396654932
P02461	-0.4844628901532038
P02461	-0.30714176321851616
P02461	-0.5505826324000364
Q15113	-1.1877365122331507
B7LFT7	-0.8691595723165936
B7LFT7	-0.9352793145634263
B7LFT6	-0.5235336469354231
B7LFT4	-0.8992140006106084
Q9BXJ7	0.8770027115656677
O60494	0.5013223578904823
O60494	0.3811046447144233
O60494	0.3750937590556203
P31946	0.67864348482517
P31946	0.6545999421899581
P31946	0.11362023289769126
P31946	0.11963111855649405
Q3KP22	0.771812212536616
Q8NHR7	0.777823098195419
Q3KP22	0.7056924702897833
Q8NHR7	0.6996815846309804
Q9H4L7	-1.1937473978919537
Q13263	-0.8150616013873668
Q9H4L7	-0.8210724870461699
Q96RU2	0.03547871933325264
P0CG47	0.266897817197167
Q96RU2	0.4953114722316794
P0CG47	0.5163495720374898
A0A5H1ZR32	1.2045959799704296
P03707	1.213612308458634
P76106	1.5141565913987822
P67697	0.9701714392771137
P76106	1.3939388782227229
P67697	1.0873837096237717
Q75VW6	0.8469482832716532
Q75VW8	0.573452985796118
Q75VW6	0.552414885990308
Q75VW8	0.330012116614598
P24768	0.3149849024675906
Q13618	0.3119794596381891
A0A083ZID3	1.3067810361700798
A0A083ZID3	1.3218082503170872
A0A083ZID4	1.1925742086528237
A0A083ZID4	1.2647048365584592
S5MRN1	0.8349265119540469
S5MRN1	0.4382080584730515
S5MRN1	1.6313688617454398
S5MRN1	0.7868394266836235
I7FT00	1.102410923770779
I7FL16	1.0663456098179613
I7FT00	1.2376558510938458
I7FL16	1.2316449654350425
C9X1G5	-1.1847310694037492
C9X1G5	-1.1937473978919537
Q01650	0.050505933480260064
P08195	-0.37326150546534903
Q9I6W1	0.8709918259068647
Q9I6W1	0.889024482883274
Q9I6W2	1.0633401669885598
Q9I6W2	1.0753619383061654
A0A0U2APF4	-1.1907419550625522
A0A0U2APF4	-1.1967528407213552
Q944L3	0.6816489276545714
Q9LPR8	1.096400038111976
Q9UI95	-0.9322738717340247
Q6ZNX1	-0.6136969318174675
Q9UI95	-1.0104153852984632
Q86V20	-0.41233226224756814
Q6CJ70	-1.1426548697921284
Q6CJ70	-1.1426548697921284
Q6CJ70	-1.1366439841333253
Q6CJ70	-1.1366439841333253
Q6CTL1	-1.1426548697921284
Q6CTL1	-1.1396494269627269
Q07837	1.1955796514822248
P82251	1.1835578801646192
Q07837	0.771812212536616
P82251	0.7748176553660172
X5DVD1	0.7267305700955937
Q2G1E0	0.8138884121482368
X5DVD1	0.8619754974186605
Q2G1E0	0.8649809402480617
X5DVD1	-1.1697038552567418
X5DVD1	-1.0855514560335002
Q2G1E0	-0.7369200878229283
Q2G1E0	-1.1666984124273403
I6NT79	1.0994054809413776
I6NWZ0	1.1114272522589834
I6NT79	1.1805524373352174
I6NWZ0	1.2015905371410278
A0A402C2V4	1.4149769780285335
A0A402C2Q3	1.4149769780285335
Q9UI95	-0.7309092021641254
Q9UI95	-1.1697038552567418
Q6ZNX1	-1.1787201837449461
Q6ZNX1	-0.8150616013873668
C3YRA1	-0.18091316438365412
C3YRA1	-0.18391860721305545
C3YRA1	-0.39129416244175774
C3YRA1	-0.38828871961235645
Q5D6Y5	-0.05468456554879175
Q5D6Y5	-0.05468456554879175
Q5D6Y4	0.6215400710665417
Q5D6Y4	0.6155291854077388
Q6FVN3	0.4141645158378396
P40568	0.4051481873496348
Q6FVN3	-0.5686152893764453
P40568	-0.5836425035234527
Q96QU1	-0.8811813436341995
Q96QU1	-0.8811813436341995
Q99PF4	-1.1937473978919537
Q96QU1	-0.9052248862694114
Q96QU1	-0.9052248862694114
Q99PF4	-1.1937473978919537
P0CG48	1.2015905371410278
Q9WUU8	1.2286395226056415
P0CG48	1.1504980090412025
Q9WUU8	1.2616993937290575
Q9CWH4	-1.0194317137866677
Q9CWH4	-1.1126004414981137
Q15762	-0.3852832767829548
Q15762	-1.175714740915545
P15151	-1.1847310694037492
P15151	-0.2380165781422822
Q7Z6K3	-0.07271722252520066
P53611	0.10760934723888828
Q9UKC9	-0.28309822058330447
P63208	-0.32517442019492526
G0SGE9	0.6215400710665417
G0S263	0.5884801999431254
G0SGE9	0.3961318588614307
M4NKV9	-1.1967528407213552
P62942	-0.6617840170878911
P62942	-0.6197078174762705
Q9BV73	0.30296313114998463
Q9BV73	0.324001230955795
O31779	-0.9863718426632513
O34412	-0.9352793145634263
P02647	-0.9352793145634263
P01116	-0.953311971539835
P02647	-0.896208557781207
P04049	-0.7429309734817313
Q9GZZ1	1.015253081718136
Q9BXJ9	0.9611551107889093
P41227	1.1234490235765895
Q9NX55	0.7928503123424264
P06808	-1.1847310694037492
P13304	-0.41233226224756814
P13304	-0.6497622457702853
P06808	-1.127627655645121
W8L932	-1.028448042274872
P04501	1.439020520663745
P04501	1.4239933065167376
P04501	1.4089660923697302
Q14126	1.3157973646582841
Q6PIF2	0.9761823249359167
Q6PIF2	0.9431224538125007
Q9BXU0	0.8439428404422517
Q9BXU0	0.8499537261010544
Q6CLZ2	0.1256420042152972
Q6CLZ2	0.5974965284313298
Q755K3	0.9701714392771137
Q755K3	0.8138884121482368
Q03LF7	-1.1937473978919537
A0A2U7VKE8	-1.0885568988629017
A0A2U7VKE8	-1.1907419550625522
A0A144A134	-0.28009277775390296
A0A144A134	0.4021427445202337
P61981	0.28192503134417457
P42575	0.2578814887089624
P70060	-0.47845200449440084
G2RCY5	-0.13583152194263184
G2QV68	-0.18391860721305545
G2RCY5	-0.15987506457784373
G2QV68	-0.20495670701886584
D7Y2H3	0.4983169150610809
D7Y2H2	-0.9442956430516305
D7Y2H3	0.44121350130245296
D7Y2H2	-0.9412902002222291
Q66K64	-0.685827559723103
Q16531	-0.7068656595289134
Q16531	-0.7068656595289134
Q9BW61	-1.1636929695979388
Q14498	-0.9322738717340247
B3CVM3	-0.6647894599172928
P0CG48	-0.6738057884054972
P0CG48	-0.2139730355070703
P0CG48	-1.175714740915545
Q9QZ88	-0.16288050740724522
Q9EQH3	-0.2139730355070703
Q9QZ88	-0.3612397341477429
Q9EQH3	-0.49949010430021124
S6FCX2	0.7658013268778131
S6FCX2	0.771812212536616
P63208	-0.1448478504308363
Q9UF56	-0.5415663039118319
Q14145	-1.1847310694037492
Q13616	0.29094135983237873
P21951	-0.878175900804798
U2EQ00	-0.30113087755971335
U2EQ00	-0.28910910624210745
P02786	-0.7068656595289134
P02786	-0.709871102358315
G2QAT9	0.11362023289769126
G2QFF9	-0.5085064327884157
G2QAT9	0.02946783367444967
G2QFF9	-0.49949010430021124
P52891	-0.7820017302639505
P36161	-0.8691595723165936
Q08AG7	-0.2560492351186911
Q96CW5	-0.5265390897648246
Q08AG7	-1.1967528407213552
Q96RT7	-1.1937473978919537
Q9I708	-0.01561380876657261
Q9I707	-0.006597480278367989
Q9I708	0.32099578812639357
Q9I707	0.3149849024675906
O75376	0.29995768832058317
P41182	0.29995768832058317
O75376	0.3510502164204084
P41182	0.3510502164204084
P20929	0.5464040003315046
O75376	0.5464040003315046
P20929	0.2789195885147728
O75376	0.2789195885147728
P30052	-0.9683391856868424
P30052	-0.7489418591405342
Q26366	-0.9322738717340247
Q26366	-0.8180670442167683
P52129	-0.4904737758120068
P52129	-0.5055009899590142
P52130	0.4953114722316794
P52130	1.096400038111976
P53550	-0.7940235015815564
Q12517	-0.41533770507696965
P39998	-1.1787201837449461
P11836	0.7688067697072145
P11836	0.7447632270720023
P0DP92	-0.14184240760143466
P0DP92	-0.22599480682467657
P0ADJ3	-0.7669745161169431
P0ADJ3	-0.7459364163111327
P53973	-0.5085064327884157
P53973	-0.7759908446051476
Q06629	-0.959322857198638
Q06623	-1.14566031262153
Q9BSV6	-1.1877365122331507
Q8WW01	-1.175714740915545
Q8WW01	-1.1606875267685373
Q9BSV6	-1.1727092980861433
Q25922	-0.4904737758120068
Q8I0U8	-0.06069545120759489
Q8I0U8	-0.4754465616649994
C4PDY5	0.39012097320262773
Q57968	-1.1546766411097344
Q57968	-0.5175227612766201
Q58261	-1.1546766411097344
Q58261	0.023456948015646864
P0DTD1	-0.37927239112415184
P0DTD1	0.8168938549776383
P0DTD1	-0.3462125200007355
P0DTD1	-1.1907419550625522
A0A0B0QJR1	1.3698953355875112
A0A0B0QJR1	1.3698953355875112
A0A0B0QJN8	1.3698953355875112
Q8ZL98	-0.6918384453819061
Q8ZL98	-1.058502470568887
Q8ZL98	-1.1486657554509314
Q8ZL98	-0.4874683329826052
Q7CPW9	1.0032313104005302
Q7CPW9	1.0362911815239464
Q8ZMH5	0.8589700545892591
Q8ZMH5	0.8830135972244709
O93807	-0.45741390468859033
O93807	-0.20495670701886584
Q59PZ2	-0.13282607911323036
A0A1D8PS42	-0.09375532233101072
Q16820	1.0753619383061654
Q9QXC1	1.0302802958651434
Q16820	0.6005019712607313
Q9QXC1	0.7026870274603818
Q96QK1	0.9821932105947196
Q9UBQ0	0.9581496679595081
Q96QK1	0.7327414557543968
Q9UBQ0	0.6005019712607313
E9P977	0.336023002273401
P14693	0.9731768821065152
P50110	0.6515944993605566
Q5ZSI8	-0.7248983165053223
Q5ZSI8	-0.7429309734817313
P0CG47	-0.5926588320116571
P0CG47	-0.5806370606940513
Q9BV40	1.2767266078760648
P56962	1.2616993937290575
O95721	1.2616993937290575
O95721	1.3338300216346934
A0A3A3ATA4	1.5953035477926223
A0A0B4ND47	1.5892926621338193
A0A3A3ATA4	1.5712600051574102
A0A0B4ND47	1.5712600051574102
W9BQC4	0.36307198773801436
A0A447RTX7	0.30596857397938615
W9BQC4	1.0723564954767641
A0A447RTX7	1.0783673811355672
P61224	-1.175714740915545
P61224	-0.9563174143692365
Q9BYB0	-0.8300888155343743
Q9BYB0	-0.5565935180588394
P0A8K1	1.345851792952299
P0A8K1	1.357873564269905
P0A8K1	1.6433906330630457
P0A8K1	1.6644287328688565
Q86WC4	1.126454466405991
Q86WC4	1.1114272522589834
P51798	1.0302802958651434
P51798	1.021263967376939
D9I2F9	-1.1727092980861433
D9I2F9	-1.058502470568887
D9I2F9	-0.1538641789190406
D9I2F9	-1.1396494269627269
Q10432	-0.43337036205337853
Q10432	-0.47845200449440084
O14246	-0.28009277775390296
O14246	-0.31014720604791784
Q9NYK1	-1.1907419550625522
Q9NYK1	-1.1877365122331507
Q9H1C4	-1.1937473978919537
Q9H1C4	-1.1967528407213552
Q9NRD9	-1.1967528407213552
Q1HG43	-1.1967528407213552
Q9NRD9	-1.1967528407213552
Q1HG43	-1.1967528407213552
P35613	-1.1847310694037492
P89105	0.5494094431609061
P38351	0.9010462542008796
Q06697	1.1204435807471875
P53064	0.6155291854077388
P41180	-1.1396494269627269
P41180	-1.1877365122331507
Q14416	-1.0044044996396602
Q14416	-1.0074099424690617
Q9XUS9	0.4141645158378396
Q9XUS9	-0.2560492351186911
Q9XUS9	-0.2169784783364718
Q8EGZ2	0.4532352726200586
Q8EGZ2	0.2578814887089624
Q8EGZ3	-0.39429960527115926
Q8EGZ3	-0.012608365937171125
P0A024	-0.1298206362838289
P0A024	-0.1298206362838289
Q4Z971	-1.1636929695979388
Q4Z971	-1.1636929695979388
I5AX50	1.0573292813297568
I5AX49	1.0573292813297568
O15269	1.3308245788052917
O15270	1.3308245788052917
Q969W0	1.475085834616563
Q8N138	1.0062367532299314
Q8BHN3	1.6283634189160383
O08795	1.6163416475984325
Q8BHN3	1.580276333645615
O08795	1.5382001340339941
Q7TS55	0.3660774305674159
Q7TS55	0.39913730169083217
O35714	1.4059606495403287
O35714	1.4029552067109272
P0DTC3	-0.6948438882113078
P02647	-1.1095949986687121
P0DTC3	-0.7158819880171179
P02647	-1.115605884327515
P07900	-0.7880126159227535
P07900	-0.8270833727049728
P04150	-1.1877365122331507
Q15185	-1.175714740915545
P15319	-1.1907419550625522
P07110	-1.1847310694037492
A0A5J4YJY8	-1.1697038552567418
P11393	-1.0945677845217046
P11393	-1.175714740915545
P11393	-1.175714740915545
Q8IYM2	-0.41233226224756814
Q14432	-0.42134859073577263
Q14432	-1.14566031262153
Q8IYM2	-1.14566031262153
Q8EGW3	1.0873837096237717
Q8EGW2	1.0122476388887345
Q8EGW3	1.114432695088385
Q8EGW2	1.2677102793878605
P61006	1.4480368491519495
Q969X0	1.3789116640757153
P16772	-0.43337036205337853
P16837	-1.1907419550625522
Q9HAD4	0.5614312144785121
Q8TEV9	0.2939468026617802
Q96LT7	0.5163495720374898
Q74H36	-0.4874683329826052
Q74H36	-0.4604193475179919
Q74H35	-0.7248983165053223
Q74H35	-1.1817256265743477
G0S4T0	-0.4183431479063711
G0S024	0.6125237425783373
G0SAK3	-1.1306330984745225
G0S156	-1.121616769986318
Q9UM73	-0.6527676885996867
Q6UX46	0.5494094431609061
Q9UM73	-1.1697038552567418
Q6UX46	-1.1606875267685373
A0A097I2D0	0.324001230955795
A0A097I2B5	0.330012116614598
A0A097I2D0	0.48028425808467196
A0A097I2B5	0.4231808443260441
P25685	1.6223525332572353
Q9Y266	1.6133362047690312
O95997	-1.1817256265743477
Q14674	-1.1817256265743477
P06493	-0.5535880752294379
P61024	-0.535555418253029
P14635	-0.8330942583637757
Q9BXR0	-0.03665190857238284
Q9H974	0.005424291039237953
Q96S59	1.2436667367526488
Q8IVV7	1.1504980090412025
O76616	0.5043278007198841
O76616	0.783833983854222
Q09293	0.8589700545892591
Q09293	0.17673453231512246
G0H061	0.03247327650385115
G0H061	-0.03665190857238284
G0H062	0.6876598133133744
Q5F651	-0.6677949027466942
Q5F9V6	-0.18992949287185842
P0AEX9	-1.1787201837449461
P0AEX9	-1.1877365122331507
Q93034	0.34203388793220396
P22303	1.3849225497345188
P22303	1.457053177640154
P67812	0.7297360129249949
P61009	0.38711553037322627
Q15005	0.005424291039237953
Q9Y6A9	-0.610691488988066
Q08951	-0.5595989608882409
P46682	-0.9292684289046231
A0A0H2UQH5	-1.1426548697921284
A0A0H2UQH5	-1.1126004414981137
Q96E22	-0.5686152893764453
Q86SQ9	-0.43036491922397707
Q39VG2	1.0332857386945449
Q39VG1	0.8289156262952443
Q39VG2	0.9401170109830989
Q39VG1	1.0783673811355672
Q8C456	1.0933945952825745
Q059U7	1.1535034518706042
Q3UYI6	0.9010462542008796
A2A825	0.6095182997489358
O14746	-0.19894582136006286
Q180W3	-1.0254425994454706
Q18CJ4	-0.5385608610824305
P12824	-0.8631486866577907
P16832	-0.9893772854926528
Q8AZ32	-1.1937473978919537
P16234	-1.1937473978919537
P29973	0.4171699586672411
P29973	-1.1967528407213552
Q14028	0.26389237436776536
P29973	-0.0246301372547769
Q9UH17	-1.1697038552567418
P0AEX9	-1.1937473978919537
P03190	-1.1937473978919537
P0AEX9	-1.1937473978919537
P03190	-1.1937473978919537
Q9UH17	-1.1937473978919537
Q5T848	-0.4754465616649994
Q5T848	0.3179903452969921
P49802	-0.9022194434400099
P62881	-0.7008547738701105
P25106	-0.896208557781207
P48061	-0.30413632038911487
P93002	-0.5656098465470438
P93002	0.32099578812639357
Q39234	-0.8421105868519803
Q39234	-0.47845200449440084
P18627	-1.1907419550625522
P18627	-1.1907419550625522
Q6UWB1	0.9341061253242963
P40189	0.7297360129249949
Q14213	0.9311006824948944
Q8NEV9	0.8138884121482368
P25021	-1.1847310694037492
P25021	-1.1847310694037492
A0A8B8VNB6	-1.1847310694037492
P25021	-1.1847310694037492
A0A8H8ULJ2	-0.6647894599172928
A0A6A5Q0M1	-0.6617840170878911
A0A8H8ULJ2	-1.1095949986687121
A0A6A5Q0M1	-1.1065895558393106
Q9H293	1.0813728239649687
Q9H293	1.0903891524531728
Q9NRM6	0.9882040962535226
Q9NRM6	0.9671659964477122
P48764	-0.0637008940369962
P48764	-0.08774443667220809
Q99653	-0.45741390468859033
Q99653	-0.45741390468859033
P37869	-1.1666984124273403
O48414	-1.133638541303924
O48414	-1.1967528407213552
P37869	-1.1246222128157195
Q8I6T1	-1.1666984124273403
P04275	-1.1967528407213552
